PWD /Users/giulianoiorio/Documents/SEVNp/doc/doxyfiles/latex
INPUT /usr/local/texlive/2022/texmf.cnf
INPUT /usr/local/texlive/2022/texmf-dist/web2c/texmf.cnf
INPUT /usr/local/texlive/2022/texmf-var/web2c/pdftex/pdflatex.fmt
INPUT namespaces.tex
OUTPUT namespaces.log
