1.32010303e-02   1.32010303e-02   1.32010303e-02   1.32010303e-02   1.32010303e-02   1.32010303e-02   1.32010303e-02   1.32010303e-02   1.32010303e-02   1.32010303e-02   1.32010303e-02   1.32010303e-02   1.32010303e-02   1.32010303e-02   1.32010303e-02   1.32010303e-02   1.32010303e-02   1.32010303e-02   1.32010303e-02   1.32010303e-02   1.32010303e-02   1.32010303e-02   1.32010303e-02   
1.32010303e-02   1.32010303e-02   1.32010303e-02   1.32010303e-02   1.32010303e-02   1.32010303e-02   1.32010303e-02   1.32010303e-02   1.32010303e-02   1.32010303e-02   1.32010303e-02   1.32010303e-02   
1.32010303e-02   1.32010303e-02   1.32010303e-02   1.32010303e-02   1.32010303e-02   1.32010303e-02   1.32010303e-02   1.32010303e-02   1.32010303e-02   1.32010303e-02   1.32010303e-02   1.32010303e-02   1.32010303e-02   1.32010303e-02   1.32010303e-02   1.32010303e-02   1.32010303e-02   1.32010303e-02   1.32010303e-02   1.32010303e-02   1.32010303e-02   1.32010303e-02   1.32010303e-02   1.32010303e-02   1.32010303e-02   1.32010303e-02   1.32010303e-02   1.32010303e-02   1.32010303e-02   1.32010303e-02   1.32010303e-02   1.32010303e-02   1.32010303e-02   1.32010303e-02   1.32010303e-02   1.32010303e-02   1.32010303e-02   1.32010303e-02   1.32010303e-02   1.32010303e-02   1.32010303e-02   1.32010303e-02   1.32010303e-02   1.32010303e-02   1.32010303e-02   1.32010303e-02   1.32010303e-02   1.32010303e-02   1.32010303e-02   1.32010303e-02   1.32010303e-02   1.32010303e-02   1.32010303e-02   1.32010303e-02   1.32010303e-02   1.32010303e-02   1.32010303e-02   1.32010303e-02   1.32010303e-02   1.32010303e-02   1.32010303e-02   1.32010303e-02   1.32010303e-02   1.32010303e-02   1.32010303e-02   1.32010303e-02   
1.32010303e-02   1.32010303e-02   1.32010303e-02   1.32010303e-02   1.32010303e-02   1.32010303e-02   1.32010303e-02   1.32010303e-02   1.32010303e-02   1.32010303e-02   1.32010303e-02   1.32010303e-02   1.32010303e-02   1.32010303e-02   1.32010303e-02   1.32010303e-02   1.32010303e-02   1.32010303e-02   1.32010303e-02   1.32010303e-02   1.32010303e-02   1.32010303e-02   1.32010303e-02   1.32010303e-02   1.32010303e-02   1.32010303e-02   1.32010303e-02   1.32010303e-02   1.32010303e-02   1.32010303e-02   1.32010303e-02   1.32010303e-02   1.32010303e-02   1.32010303e-02   1.32010303e-02   1.32010303e-02   1.32010303e-02   1.32010303e-02   1.32010303e-02   1.32010303e-02   1.32010303e-02   1.32010303e-02   1.32010303e-02   1.32010303e-02   1.32010303e-02   1.32010303e-02   1.32010303e-02   1.32010303e-02   1.32010303e-02   1.32010303e-02   1.32010303e-02   1.32010303e-02   1.32010303e-02   1.32010303e-02   1.32010303e-02   1.32010303e-02   1.32010303e-02   1.32010303e-02   1.32010303e-02   1.32010303e-02   1.32010303e-02   1.32010303e-02   1.32010303e-02   1.32010303e-02   1.32010303e-02   1.32010303e-02   1.32010303e-02   1.32010303e-02   1.32010303e-02   1.32010303e-02   1.32010303e-02   1.32010303e-02   1.32010303e-02   1.32010303e-02   1.32010303e-02   1.32010303e-02   1.32010303e-02   1.32010303e-02   1.32010303e-02   1.32010303e-02   1.32010303e-02   1.32010303e-02   1.32010303e-02   1.32010303e-02   1.32010303e-02   1.32010303e-02   1.32010303e-02   1.32010303e-02   1.32010303e-02   1.32010303e-02   1.32010303e-02   1.32010303e-02   1.32010303e-02   1.32010303e-02   1.32010303e-02   1.32010303e-02   1.32010303e-02   1.32010303e-02   1.32010303e-02   1.32010303e-02   1.32010303e-02   1.32010303e-02   1.32010303e-02   1.32010303e-02   1.32010303e-02   1.32010303e-02   1.32010303e-02   1.32010303e-02   1.32010303e-02   1.32010303e-02   1.32010303e-02   1.32010303e-02   1.32010303e-02   1.32010303e-02   1.32010303e-02   1.32010303e-02   1.32010303e-02   1.32010303e-02   1.32010303e-02   1.32010303e-02   1.32010303e-02   1.32010303e-02   1.32010303e-02   1.32010303e-02   1.32010303e-02   1.32010303e-02   1.32010303e-02   1.32010303e-02   1.32010303e-02   1.32010303e-02   1.32010303e-02   1.32010303e-02   1.32010303e-02   1.32010303e-02   1.32010303e-02   1.32010303e-02   1.32010303e-02   1.32010303e-02   1.32010303e-02   1.32010303e-02   1.32010303e-02   1.32010303e-02   1.32010303e-02   1.32010303e-02   1.32010303e-02   1.32010303e-02   1.32010303e-02   1.32010303e-02   1.32010303e-02   1.32010303e-02   1.32010303e-02   1.32010303e-02   1.32010303e-02   1.32010303e-02   1.32010303e-02   1.32010303e-02   1.32010303e-02   1.32010303e-02   1.32010303e-02   1.32010303e-02   1.32010303e-02   1.32010303e-02   1.32010303e-02   1.32010303e-02   1.32010303e-02   1.32010303e-02   1.32010303e-02   1.32010303e-02   1.32010303e-02   1.32010303e-02   1.32010303e-02   1.32010303e-02   1.32010303e-02   1.32010303e-02   1.32010303e-02   1.32010303e-02   1.32010303e-02   1.32010303e-02   1.32010303e-02   1.32010303e-02   1.32010303e-02   1.32010303e-02   1.32010303e-02   1.32010303e-02   1.32010303e-02   1.32010303e-02   1.32010303e-02   1.32010303e-02   1.32010303e-02   1.32010303e-02   1.32010303e-02   1.32010303e-02   1.32010303e-02   1.32010303e-02   1.32010303e-02   1.32010303e-02   1.32010303e-02   1.32010303e-02   1.32010303e-02   1.32010303e-02   1.32010303e-02   1.32010303e-02   1.32010303e-02   1.32010303e-02   1.32010303e-02   1.32010303e-02   1.32010303e-02   1.32010303e-02   1.32010303e-02   1.32010303e-02   1.32010303e-02   1.32010303e-02   1.32010303e-02   1.32010303e-02   1.32010303e-02   1.32010303e-02   1.32010303e-02   1.32010303e-02   1.32010303e-02   1.32010303e-02   1.32010303e-02   1.32010303e-02   1.32010303e-02   1.32010303e-02   1.32010303e-02   1.32010303e-02   1.32010303e-02   1.32010303e-02   1.32010303e-02   1.32010303e-02   1.32010303e-02   1.32010303e-02   1.32010303e-02   1.32010303e-02   1.32010303e-02   1.32010303e-02   1.32010303e-02   1.32010303e-02   1.32010303e-02   1.32010303e-02   1.32010303e-02   1.32010303e-02   1.32010303e-02   1.32010303e-02   1.32010303e-02   1.32010303e-02   1.32010303e-02   1.32010303e-02   1.32010303e-02   1.32010303e-02   1.32010303e-02   1.32010303e-02   1.32010303e-02   1.32010303e-02   1.32010303e-02   1.32010303e-02   1.32010303e-02   1.32010303e-02   1.32010303e-02   1.32010303e-02   1.32010303e-02   1.32010303e-02   1.32010303e-02   1.32010303e-02   1.32010303e-02   1.32010303e-02   1.32010303e-02   1.32010303e-02   1.32010303e-02   1.32010303e-02   1.32010303e-02   1.32010303e-02   1.32010303e-02   1.32010303e-02   1.32010303e-02   1.32010303e-02   1.32010303e-02   1.32010303e-02   1.32010303e-02   1.32010303e-02   1.32010303e-02   1.32010303e-02   1.32010303e-02   1.32010303e-02   1.32010303e-02   1.32010303e-02   1.32010303e-02   1.32010303e-02   1.32010303e-02   1.32010303e-02   1.32010303e-02   1.32010303e-02   1.32010303e-02   1.32010303e-02   1.32010303e-02   1.32010303e-02   1.32010303e-02   1.32010303e-02   1.32010303e-02   1.32010303e-02   1.32010303e-02   1.32010303e-02   1.32010303e-02   1.32010303e-02   1.32010303e-02   1.32010303e-02   1.32010303e-02   1.32010303e-02   1.32010303e-02   1.32010303e-02   1.32010303e-02   1.32010303e-02   1.32010303e-02   1.32010303e-02   1.32010303e-02   1.32010303e-02   1.32010303e-02   1.32010303e-02   1.32010303e-02   1.32010303e-02   1.32010303e-02   1.32010303e-02   1.32010303e-02   1.32010303e-02   1.32010303e-02   1.32010303e-02   1.32010303e-02   1.32010303e-02   1.32010303e-02   1.32010303e-02   1.32010303e-02   1.32010303e-02   1.32010303e-02   1.32010303e-02   1.32010303e-02   1.32010303e-02   1.32010303e-02   1.32010303e-02   1.32010303e-02   1.32010303e-02   1.32010303e-02   1.32010303e-02   1.32010303e-02   1.32010303e-02   1.32010303e-02   1.32010303e-02   1.32010303e-02   1.32010303e-02   1.32010303e-02   1.32010303e-02   1.32010303e-02   1.32010303e-02   1.32010303e-02   1.32010303e-02   1.32010303e-02   1.32010303e-02   1.32010303e-02   1.32010303e-02   1.32010303e-02   1.32010303e-02   1.32010303e-02   1.32010303e-02   1.32010303e-02   1.32010303e-02   1.32010303e-02   1.32010303e-02   1.32010303e-02   1.32010303e-02   1.32010303e-02   1.32010303e-02   1.32010303e-02   1.32010303e-02   1.32010303e-02   1.32010303e-02   1.32010303e-02   1.32010303e-02   1.32010303e-02   1.32010303e-02   1.32010303e-02   1.32010303e-02   1.32010303e-02   1.32010303e-02   1.32010303e-02   1.32010303e-02   1.32010303e-02   1.32010303e-02   1.32010303e-02   1.32010303e-02   1.32010303e-02   1.32010303e-02   1.32010303e-02   1.32010303e-02   1.32010303e-02   1.32010303e-02   1.32010303e-02   1.32010303e-02   1.32010303e-02   1.32010303e-02   1.32010303e-02   1.32010303e-02   1.32010303e-02   1.32010303e-02   1.32010303e-02   1.32010303e-02   1.32010303e-02   1.32010303e-02   1.32010303e-02   1.32010303e-02   1.32010303e-02   1.32010303e-02   1.32010303e-02   1.32010303e-02   1.32010303e-02   1.32010303e-02   1.32010303e-02   1.32010303e-02   1.32010303e-02   1.32010303e-02   1.32010303e-02   1.32010303e-02   1.32010303e-02   1.32010303e-02   1.32010303e-02   1.32010303e-02   1.32010303e-02   1.32010303e-02   1.32010303e-02   1.32010303e-02   1.32010303e-02   1.32010303e-02   1.32010303e-02   1.32010303e-02   1.32010303e-02   1.32010303e-02   1.32010303e-02   1.32010303e-02   1.32010303e-02   1.32010303e-02   1.32010303e-02   1.32010303e-02   1.32010303e-02   1.32010303e-02   1.32010303e-02   1.32010303e-02   1.32010303e-02   1.32010303e-02   1.32010303e-02   1.32010303e-02   1.32010303e-02   1.32010303e-02   1.32010303e-02   1.32010303e-02   1.32010303e-02   1.32010303e-02   1.32010303e-02   1.32010303e-02   1.32010303e-02   1.32010303e-02   1.32010303e-02   1.32010303e-02   1.32010303e-02   1.32010303e-02   1.32010303e-02   1.32010303e-02   1.32010303e-02   1.32010303e-02   1.32010303e-02   1.32010303e-02   1.32010303e-02   1.32010303e-02   1.32010303e-02   1.32010303e-02   1.32010303e-02   1.32010303e-02   1.32010303e-02   1.32010303e-02   1.32010303e-02   1.32010303e-02   1.32010303e-02   1.32010303e-02   1.32010303e-02   1.32010303e-02   1.32010303e-02   1.32010303e-02   1.32010303e-02   1.32010303e-02   1.32010303e-02   1.32010303e-02   1.32010303e-02   1.32010303e-02   1.32010303e-02   1.32010303e-02   1.32010303e-02   1.32010303e-02   1.32010303e-02   1.32010303e-02   1.32010303e-02   1.32010303e-02   1.32010303e-02   1.32010303e-02   1.32010303e-02   1.32010303e-02   1.32010303e-02   1.32010303e-02   1.32010303e-02   1.32010303e-02   1.32010303e-02   1.32010303e-02   1.32010303e-02   1.32010303e-02   1.32010303e-02   1.32010303e-02   1.32010303e-02   1.32010303e-02   1.32010303e-02   1.32010303e-02   1.32010303e-02   1.32010303e-02   1.32010303e-02   1.32010303e-02   1.32010303e-02   1.32010303e-02   1.32010303e-02   1.32010303e-02   1.32010303e-02   1.32010303e-02   1.32010303e-02   1.32010303e-02   1.32010303e-02   1.32010303e-02   1.32010303e-02   1.32010303e-02   1.32010303e-02   1.32010303e-02   1.32010303e-02   1.32010303e-02   1.32010303e-02   1.32010303e-02   1.32010303e-02   1.32010303e-02   1.32010303e-02   1.32010303e-02   1.32010303e-02   1.32010303e-02   1.32010303e-02   1.32010303e-02   1.32010303e-02   1.32010303e-02   1.32010303e-02   1.32010303e-02   1.32010303e-02   1.32010303e-02   1.32010303e-02   1.32010303e-02   1.32010303e-02   1.32010303e-02   1.32010303e-02   1.32010303e-02   1.32010303e-02   1.32010303e-02   1.32010303e-02   1.32010303e-02   1.32010303e-02   1.32010303e-02   1.32010303e-02   1.32010303e-02   1.32010303e-02   1.32010303e-02   1.32010303e-02   1.32010303e-02   1.32010303e-02   1.32010303e-02   1.32010303e-02   1.32010303e-02   1.32010303e-02   1.32010303e-02   1.32010303e-02   1.32010303e-02   1.32010303e-02   1.32010303e-02   1.32010303e-02   1.32010303e-02   1.32010303e-02   1.32010303e-02   1.32010303e-02   1.32010303e-02   1.32010303e-02   1.32010303e-02   1.32010303e-02   1.32010303e-02   1.32010303e-02   1.32010303e-02   1.32010303e-02   1.32010303e-02   1.32010303e-02   1.32010303e-02   1.32010303e-02   1.32010303e-02   1.32010303e-02   1.32010303e-02   1.32010303e-02   1.32010303e-02   1.32010303e-02   1.32010303e-02   1.32010303e-02   1.32010303e-02   1.32010303e-02   1.32010303e-02   1.32010303e-02   1.32010303e-02   1.32010303e-02   1.32010303e-02   1.32010303e-02   1.32010303e-02   1.32010303e-02   1.32010303e-02   1.32010303e-02   1.32010303e-02   1.32010303e-02   1.32010303e-02   1.32010303e-02   1.32010303e-02   1.32010303e-02   1.32010303e-02   1.32010303e-02   1.32010303e-02   1.32010303e-02   1.32010303e-02   1.32010303e-02   1.32010303e-02   1.32010303e-02   1.32010303e-02   1.32010303e-02   1.32010303e-02   1.32010303e-02   1.32010303e-02   1.32010303e-02   1.32010303e-02   1.32010303e-02   1.32010303e-02   1.32010303e-02   1.32010303e-02   1.32010303e-02   1.32010303e-02   1.32010303e-02   1.32010303e-02   1.32010303e-02   1.32010303e-02   1.32010303e-02   1.32010303e-02   1.32010303e-02   1.32010303e-02   1.32010303e-02   1.32010303e-02   1.32010303e-02   1.32010303e-02   1.32010303e-02   1.32010303e-02   1.32010303e-02   1.32010303e-02   1.32010303e-02   1.32010303e-02   1.32010303e-02   1.32010303e-02   1.32010303e-02   1.32010303e-02   1.32010303e-02   1.32010303e-02   1.32010303e-02   1.32010303e-02   1.32010303e-02   1.32010303e-02   1.32010303e-02   1.32010303e-02   1.32010303e-02   1.32010303e-02   1.32010303e-02   
1.32010303e-02   1.32010303e-02   1.32010303e-02   1.32010303e-02   1.32010303e-02   1.32010303e-02   1.32010303e-02   1.32010303e-02   1.32010303e-02   1.32010303e-02   1.32010303e-02   1.32010303e-02   1.32010303e-02   1.32010303e-02   1.32010303e-02   1.32010303e-02   1.32010303e-02   1.32010303e-02   1.32010303e-02   1.32010303e-02   1.32010303e-02   1.32010303e-02   1.32010303e-02   1.32010303e-02   1.32010303e-02   1.32010303e-02   1.32010303e-02   1.32010303e-02   1.32010303e-02   1.32010303e-02   1.32010303e-02   1.32010303e-02   1.32010303e-02   1.32010303e-02   1.32010303e-02   1.32010303e-02   1.32010303e-02   1.32010303e-02   1.32010303e-02   1.32010303e-02   1.32010303e-02   1.32010303e-02   1.32010303e-02   1.32010303e-02   1.32010303e-02   1.32010303e-02   1.32010303e-02   1.32010303e-02   1.32010303e-02   1.32010303e-02   1.32010303e-02   1.32010303e-02   1.32010303e-02   1.32010303e-02   1.32010303e-02   1.32010303e-02   1.32010303e-02   1.32010303e-02   1.32010303e-02   1.32010303e-02   1.32010303e-02   1.32010303e-02   1.32010303e-02   1.32010303e-02   1.32010303e-02   1.32010303e-02   1.32010303e-02   1.32010303e-02   1.32010303e-02   1.32010303e-02   1.32010303e-02   1.32010303e-02   1.32010303e-02   1.32010303e-02   1.32010303e-02   1.32010303e-02   1.32010303e-02   1.32010303e-02   1.32010303e-02   1.32010303e-02   1.32010303e-02   1.32010303e-02   1.32010303e-02   1.32010303e-02   1.32010303e-02   1.32010303e-02   1.32010303e-02   1.32010303e-02   1.32010303e-02   1.32010303e-02   1.32010303e-02   1.32010303e-02   1.32010303e-02   1.32010303e-02   1.32010303e-02   1.32010303e-02   1.32010303e-02   1.32010303e-02   1.32010303e-02   1.32010303e-02   1.32010303e-02   1.32010303e-02   1.32010303e-02   1.32010303e-02   1.32010303e-02   1.32010303e-02   1.32010303e-02   1.32010303e-02   1.32010303e-02   1.32010303e-02   1.32010303e-02   1.32010303e-02   1.32010303e-02   1.32010303e-02   1.32010303e-02   1.32010303e-02   1.32010303e-02   1.32010303e-02   1.32010303e-02   1.32010303e-02   1.32010303e-02   1.32010303e-02   1.32010303e-02   1.32010303e-02   1.32010303e-02   1.32010303e-02   1.32010303e-02   1.32010303e-02   1.32010303e-02   1.32010303e-02   1.32010303e-02   1.32010303e-02   1.32010303e-02   1.32010303e-02   1.32010303e-02   1.32010303e-02   1.32010303e-02   1.32010303e-02   1.32010303e-02   1.32010303e-02   1.32010303e-02   1.32010303e-02   1.32010303e-02   1.32010303e-02   1.32010303e-02   1.32010303e-02   1.32010303e-02   1.32010303e-02   1.32010303e-02   1.32010303e-02   1.32010303e-02   1.32010303e-02   1.32010303e-02   1.32010303e-02   1.32010303e-02   1.32010303e-02   1.32010303e-02   1.32010303e-02   1.32010303e-02   1.32010303e-02   1.32010303e-02   1.32010303e-02   1.32010303e-02   1.32010303e-02   1.32010303e-02   1.32010303e-02   1.32010303e-02   1.32010303e-02   1.32010303e-02   1.32010303e-02   1.32010303e-02   1.32010303e-02   1.32010303e-02   1.32010303e-02   1.32010303e-02   1.32010303e-02   1.32010303e-02   1.32010303e-02   1.32010303e-02   1.32010303e-02   1.32010303e-02   1.32010303e-02   1.32010303e-02   1.32010303e-02   1.32010303e-02   1.32010303e-02   1.32010303e-02   1.32010303e-02   1.32010303e-02   1.32010303e-02   1.32010303e-02   1.32010303e-02   1.32010303e-02   1.32010303e-02   1.32010303e-02   1.32010303e-02   1.32010303e-02   1.32010303e-02   1.32010303e-02   1.32010303e-02   1.32010303e-02   1.32010303e-02   1.32010303e-02   1.32010303e-02   1.32010303e-02   1.32010303e-02   1.32010303e-02   1.32010303e-02   1.32010303e-02   1.32010303e-02   1.32010303e-02   1.32010303e-02   1.32010303e-02   1.32010303e-02   1.32010303e-02   1.32010303e-02   1.32010303e-02   1.32010303e-02   1.32010303e-02   1.32010303e-02   1.32010303e-02   1.32010303e-02   1.32010303e-02   1.32010303e-02   1.32010303e-02   1.32010303e-02   1.32010303e-02   1.32010303e-02   1.32010303e-02   1.32010303e-02   1.32010303e-02   1.32010303e-02   1.32010303e-02   1.32010303e-02   1.32010303e-02   1.32010303e-02   1.32010303e-02   1.32010303e-02   1.32010303e-02   1.32010303e-02   1.32010303e-02   1.32010303e-02   1.32010303e-02   1.32010303e-02   1.32010303e-02   1.32010303e-02   1.32010303e-02   1.32010303e-02   1.32010303e-02   1.32010303e-02   1.32010303e-02   1.32010303e-02   1.32010303e-02   1.32010303e-02   1.32010303e-02   1.32010303e-02   1.32010303e-02   1.32010303e-02   1.32010303e-02   1.32010303e-02   1.32010303e-02   1.32010303e-02   1.32010303e-02   1.32010303e-02   1.32010303e-02   1.32010303e-02   1.32010303e-02   1.32010303e-02   1.32010303e-02   1.32010303e-02   1.32010303e-02   1.32010303e-02   1.32010303e-02   1.32010303e-02   1.32010303e-02   1.32010303e-02   1.32010303e-02   1.32010303e-02   1.32010303e-02   1.32010303e-02   1.32010303e-02   1.32010303e-02   1.32010303e-02   1.32010303e-02   1.32010303e-02   1.32010303e-02   1.32010303e-02   1.32010303e-02   1.32010303e-02   1.32010303e-02   1.32010303e-02   1.32010303e-02   1.32010303e-02   1.32010303e-02   1.32010303e-02   1.32010303e-02   1.32010303e-02   1.32010303e-02   1.32010303e-02   1.32010303e-02   1.32010303e-02   1.32010303e-02   1.32010303e-02   1.32010303e-02   1.32010303e-02   1.32010303e-02   1.32010303e-02   1.32010303e-02   1.32010303e-02   1.32010303e-02   1.32010303e-02   1.32010303e-02   1.32010303e-02   1.32010303e-02   1.32010303e-02   1.32010303e-02   1.32010303e-02   1.32010303e-02   1.32010303e-02   1.32010303e-02   1.32010303e-02   1.32010303e-02   1.32010303e-02   1.32010303e-02   1.32010303e-02   1.32010303e-02   1.32010303e-02   1.32010303e-02   1.32010303e-02   1.32010303e-02   1.32010303e-02   1.32010303e-02   1.32010303e-02   1.32010303e-02   1.32010303e-02   1.32010303e-02   1.32010303e-02   1.32010303e-02   1.32010303e-02   1.32010303e-02   1.32010303e-02   1.32010303e-02   1.32010303e-02   1.32010303e-02   1.32010303e-02   1.32010303e-02   1.32010303e-02   1.32010303e-02   1.32010303e-02   1.32010303e-02   1.32010303e-02   1.32010303e-02   1.32010303e-02   1.32010303e-02   1.32010303e-02   1.32010303e-02   1.32010303e-02   1.32010303e-02   1.32010303e-02   1.32010303e-02   1.32010303e-02   1.32010303e-02   1.32010303e-02   1.32010303e-02   1.32010303e-02   1.32010303e-02   1.32010303e-02   1.32010303e-02   1.32010303e-02   1.32010303e-02   1.32010303e-02   1.32010303e-02   1.32010303e-02   1.32010303e-02   1.32010303e-02   1.32010303e-02   1.32010303e-02   1.32010303e-02   1.32010303e-02   1.32010303e-02   1.32010303e-02   1.32010303e-02   1.32010303e-02   1.32010303e-02   1.32010303e-02   1.32010303e-02   1.32010303e-02   1.32010303e-02   1.32010303e-02   1.32010303e-02   1.32010303e-02   1.32010303e-02   1.32010303e-02   1.32010303e-02   1.32010303e-02   1.32010303e-02   1.32010303e-02   1.32010303e-02   1.32010303e-02   1.32010303e-02   1.32010303e-02   1.32010303e-02   1.32010303e-02   1.32010303e-02   1.32010303e-02   1.32010303e-02   1.32010303e-02   1.32010303e-02   1.32010303e-02   1.32010303e-02   1.32010303e-02   1.32010303e-02   1.32010303e-02   1.32010303e-02   1.32010303e-02   1.32010303e-02   1.32010303e-02   1.32010303e-02   1.32010303e-02   1.32010303e-02   1.32010303e-02   1.32010303e-02   1.32010303e-02   1.32010303e-02   1.32010303e-02   1.32010303e-02   1.32010303e-02   1.32010303e-02   1.32010303e-02   1.32010303e-02   1.32010303e-02   1.32010303e-02   1.32010303e-02   1.32010303e-02   1.32010303e-02   1.32010303e-02   1.32010303e-02   1.32010303e-02   1.32010303e-02   1.32010303e-02   1.32010303e-02   1.32010303e-02   1.32010303e-02   1.32010303e-02   1.32010303e-02   1.32010303e-02   1.32010303e-02   1.32010303e-02   1.32010303e-02   1.32010303e-02   1.32010303e-02   1.32010303e-02   1.32010303e-02   1.32010303e-02   1.32010303e-02   1.32010303e-02   1.32010303e-02   1.32010303e-02   1.32010303e-02   1.32010303e-02   1.32010303e-02   1.32010303e-02   1.32010303e-02   1.32010303e-02   1.32010303e-02   1.32010303e-02   1.32010303e-02   1.32010303e-02   1.32010303e-02   1.32010303e-02   1.32010303e-02   1.32010303e-02   1.32010303e-02   1.32010303e-02   1.32010303e-02   1.32010303e-02   1.32010303e-02   1.32010303e-02   1.32010303e-02   1.32010303e-02   1.32010303e-02   1.32010303e-02   1.32010303e-02   1.32010303e-02   1.32010303e-02   1.32010303e-02   1.32010303e-02   1.32010303e-02   1.32010303e-02   1.32010303e-02   1.32010303e-02   1.32010303e-02   1.32010303e-02   1.32010303e-02   1.32010303e-02   1.32010303e-02   1.32010303e-02   1.32010303e-02   1.32010303e-02   1.32010303e-02   1.32010303e-02   1.32010303e-02   1.32010303e-02   1.32010303e-02   1.32010303e-02   1.32010303e-02   1.32010303e-02   1.32010303e-02   1.32010303e-02   1.32010303e-02   1.32010303e-02   1.32010303e-02   1.32010303e-02   1.32010303e-02   1.32010303e-02   1.32010303e-02   1.32010303e-02   1.32010303e-02   1.32010303e-02   1.32010303e-02   1.32010303e-02   1.32010303e-02   1.32010303e-02   1.32010303e-02   1.32010303e-02   1.32010303e-02   1.32010303e-02   1.32010303e-02   1.32010303e-02   1.32010303e-02   1.32010303e-02   1.32010303e-02   1.32010303e-02   1.32010303e-02   1.32010303e-02   1.32010303e-02   1.32010303e-02   1.32010303e-02   1.32010303e-02   1.32010303e-02   1.32010303e-02   1.32010303e-02   1.32010303e-02   1.32010303e-02   1.32010303e-02   1.32010303e-02   1.32010303e-02   1.32010303e-02   1.32010303e-02   1.32010303e-02   1.32010303e-02   1.32010303e-02   1.32010303e-02   1.32010303e-02   1.32010303e-02   1.32010303e-02   1.32010303e-02   1.32010303e-02   1.32010303e-02   1.32010303e-02   1.32010303e-02   1.32010303e-02   1.32010303e-02   1.32010303e-02   1.32010303e-02   1.32010303e-02   1.32010303e-02   1.32010303e-02   1.32010303e-02   1.32010303e-02   1.32010303e-02   1.32010303e-02   1.32010303e-02   1.32010303e-02   1.32010303e-02   1.32010303e-02   1.32010303e-02   1.32010303e-02   1.32010303e-02   1.32010303e-02   1.32010303e-02   1.32010303e-02   1.32010303e-02   1.32010303e-02   1.32010303e-02   1.32010303e-02   
1.32010303e-02   1.32010303e-02   1.32010303e-02   1.32010303e-02   1.32010303e-02   1.32010303e-02   1.32010303e-02   1.32010303e-02   1.32010303e-02   1.32010303e-02   1.32010303e-02   1.32010303e-02   1.32010303e-02   1.32010303e-02   1.32010303e-02   1.32010303e-02   1.32010303e-02   1.32010303e-02   1.32010303e-02   1.32010303e-02   1.32010303e-02   1.32010303e-02   1.32010303e-02   1.32010303e-02   1.32010303e-02   1.32010303e-02   1.32010303e-02   1.32010303e-02   1.32010303e-02   1.32010303e-02   1.32010303e-02   1.32010303e-02   1.32010303e-02   1.32010303e-02   1.32010303e-02   1.32010303e-02   1.32010303e-02   1.32010303e-02   1.32010303e-02   1.32010303e-02   1.32010303e-02   1.32010303e-02   1.32010303e-02   1.32010303e-02   1.32010303e-02   1.32010303e-02   1.32010303e-02   1.32010303e-02   1.32010303e-02   1.32010303e-02   1.32010303e-02   1.32010303e-02   1.32010303e-02   1.32010303e-02   1.32010303e-02   1.32010303e-02   1.32010303e-02   1.32010303e-02   1.32010303e-02   1.32010303e-02   1.32010303e-02   1.32010303e-02   1.32010303e-02   1.32010303e-02   1.32010303e-02   1.32010303e-02   1.32010303e-02   1.32010303e-02   1.32010303e-02   1.32010303e-02   1.32010303e-02   1.32010303e-02   1.32010303e-02   1.32010303e-02   1.32010303e-02   1.32010303e-02   1.32010303e-02   1.32010303e-02   1.32010303e-02   1.32010303e-02   1.32010303e-02   1.32010303e-02   1.32010303e-02   1.32010303e-02   1.32010303e-02   1.32010303e-02   1.32010303e-02   1.32010303e-02   1.32010303e-02   1.32010303e-02   1.32010303e-02   1.32010303e-02   1.32010303e-02   1.32010303e-02   1.32010303e-02   1.32010303e-02   1.32010303e-02   1.32010303e-02   1.32010303e-02   1.32010303e-02   1.32010303e-02   1.32010303e-02   1.32010303e-02   1.32010303e-02   1.32010303e-02   1.32010303e-02   1.32010303e-02   1.32010303e-02   1.32010303e-02   1.32010303e-02   1.32010303e-02   1.32010303e-02   1.32010303e-02   1.32010303e-02   1.32010303e-02   1.32010303e-02   1.32010303e-02   1.32010303e-02   1.32010303e-02   1.32010303e-02   1.32010303e-02   1.32010303e-02   1.32010303e-02   1.32010303e-02   1.32010303e-02   1.32010303e-02   1.32010303e-02   1.32010303e-02   1.32010303e-02   1.32010303e-02   1.32010303e-02   1.32010303e-02   1.32010303e-02   1.32010303e-02   1.32010303e-02   1.32010303e-02   1.32010303e-02   1.32010303e-02   1.32010303e-02   1.32010303e-02   1.32010303e-02   1.32010303e-02   1.32010303e-02   1.32010303e-02   1.32010303e-02   1.32010303e-02   1.32010303e-02   1.32010303e-02   1.32010303e-02   1.32010303e-02   1.32010303e-02   1.32010303e-02   1.32010303e-02   1.32010303e-02   1.32010303e-02   1.32010303e-02   1.32010303e-02   1.32010303e-02   1.32010303e-02   1.32010303e-02   1.32010303e-02   1.32010303e-02   1.32010303e-02   1.32010303e-02   1.32010303e-02   1.32010303e-02   1.32010303e-02   1.32010303e-02   1.32010303e-02   1.32010303e-02   1.32010303e-02   1.32010303e-02   1.32010303e-02   1.32010303e-02   1.32010303e-02   1.32010303e-02   1.32010303e-02   1.32010303e-02   1.32010303e-02   1.32010303e-02   1.32010303e-02   1.32010303e-02   1.32010303e-02   1.32010303e-02   1.32010303e-02   1.32010303e-02   1.32010303e-02   1.32010303e-02   1.32010303e-02   1.32010303e-02   1.32010303e-02   1.32010303e-02   1.32010303e-02   1.32010303e-02   1.32010303e-02   1.32010303e-02   1.32010303e-02   1.32010303e-02   1.32010303e-02   1.32010303e-02   1.32010303e-02   1.32010303e-02   1.32010303e-02   1.32010303e-02   1.32010303e-02   1.32010303e-02   1.32010303e-02   1.32010303e-02   1.32010303e-02   1.32010303e-02   1.32010303e-02   1.32010303e-02   1.32010303e-02   1.32010303e-02   1.32010303e-02   1.32010303e-02   1.32010303e-02   1.32010303e-02   1.32010303e-02   1.32010303e-02   1.32010303e-02   1.32010303e-02   1.32010303e-02   1.32010303e-02   1.32010303e-02   1.32010303e-02   1.32010303e-02   1.32010303e-02   1.32010303e-02   1.32010303e-02   1.32010303e-02   1.32010303e-02   1.32010303e-02   1.32010303e-02   1.32010303e-02   1.32010303e-02   1.32010303e-02   1.32010303e-02   1.32010303e-02   1.32010303e-02   1.32010303e-02   1.32010303e-02   1.32010303e-02   1.32010303e-02   1.32010303e-02   1.32010303e-02   1.32010303e-02   1.32010303e-02   1.32010303e-02   1.32010303e-02   1.32010303e-02   1.32010303e-02   1.32010303e-02   1.32010303e-02   1.32010303e-02   1.32010303e-02   1.32010303e-02   1.32010303e-02   1.32010303e-02   1.32010303e-02   1.32010303e-02   1.32010303e-02   1.32010303e-02   1.32010303e-02   1.32010303e-02   1.32010303e-02   1.32010303e-02   1.32010303e-02   1.32010303e-02   1.32010303e-02   1.32010303e-02   1.32010303e-02   1.32010303e-02   1.32010303e-02   1.32010303e-02   1.32010303e-02   1.32010303e-02   1.32010303e-02   1.32010303e-02   1.32010303e-02   1.32010303e-02   1.32010303e-02   1.32010303e-02   1.32010303e-02   1.32010303e-02   1.32010303e-02   1.32010303e-02   1.32010303e-02   1.32010303e-02   1.32010303e-02   1.32010303e-02   1.32010303e-02   1.32010303e-02   1.32010303e-02   1.32010303e-02   1.32010303e-02   1.32010303e-02   1.32010303e-02   1.32010303e-02   1.32010303e-02   1.32010303e-02   1.32010303e-02   1.32010303e-02   1.32010303e-02   1.32010303e-02   1.32010303e-02   1.32010303e-02   1.32010303e-02   1.32010303e-02   1.32010303e-02   1.32010303e-02   1.32010303e-02   1.32010303e-02   1.32010303e-02   1.32010303e-02   1.32010303e-02   1.32010303e-02   1.32010303e-02   1.32010303e-02   1.32010303e-02   1.32010303e-02   1.32010303e-02   1.32010303e-02   1.32010303e-02   1.32010303e-02   1.32010303e-02   1.32010303e-02   1.32010303e-02   1.32010303e-02   1.32010303e-02   1.32010303e-02   1.32010303e-02   1.32010303e-02   1.32010303e-02   1.32010303e-02   1.32010303e-02   1.32010303e-02   1.32010303e-02   1.32010303e-02   1.32010303e-02   1.32010303e-02   1.32010303e-02   1.32010303e-02   1.32010303e-02   1.32010303e-02   1.32010303e-02   1.32010303e-02   1.32010303e-02   1.32010303e-02   1.32010303e-02   1.32010303e-02   1.32010303e-02   1.32010303e-02   1.32010303e-02   1.32010303e-02   1.32010303e-02   1.32010303e-02   1.32010303e-02   1.32010303e-02   1.32010303e-02   1.32010303e-02   1.32010303e-02   1.32010303e-02   1.32010303e-02   1.32010303e-02   1.32010303e-02   1.32010303e-02   1.32010303e-02   1.32010303e-02   
1.32010303e-02   1.32010303e-02   1.32010303e-02   1.32010303e-02   1.32010303e-02   1.32010303e-02   1.32010303e-02   1.32010303e-02   1.32010303e-02   1.32010303e-02   1.32010303e-02   1.32010303e-02   1.32010303e-02   1.32010303e-02   1.32010303e-02   1.32010303e-02   1.32010303e-02   1.32010303e-02   1.32010303e-02   1.32010303e-02   1.32010303e-02   1.32010303e-02   1.32010303e-02   1.32010303e-02   1.32010303e-02   1.32010303e-02   1.32010303e-02   1.32010303e-02   1.32010303e-02   1.32010303e-02   1.32010303e-02   1.32010303e-02   1.32010303e-02   1.32010303e-02   1.32010303e-02   1.32010303e-02   1.32010303e-02   1.32010303e-02   1.32010303e-02   1.32010303e-02   1.32010303e-02   1.32010303e-02   1.32010303e-02   1.32010303e-02   1.32010303e-02   1.32010303e-02   1.32010303e-02   1.32010303e-02   1.32010303e-02   1.32010303e-02   1.32010303e-02   1.32010303e-02   1.32010303e-02   1.32010303e-02   1.32010303e-02   1.32010303e-02   1.32010303e-02   1.32010303e-02   1.32010303e-02   1.32010303e-02   1.32010303e-02   1.32010303e-02   1.32010303e-02   1.32010303e-02   1.32010303e-02   1.32010303e-02   1.32010303e-02   1.32010303e-02   1.32010303e-02   1.32010303e-02   1.32010303e-02   1.32010303e-02   1.32010303e-02   1.32010303e-02   1.32010303e-02   1.32010303e-02   1.32010303e-02   1.32010303e-02   1.32010303e-02   1.32010303e-02   1.32010303e-02   1.32010303e-02   1.32010303e-02   1.32010303e-02   1.32010303e-02   1.32010303e-02   1.32010303e-02   1.32010303e-02   1.32010303e-02   1.32010303e-02   1.32010303e-02   1.32010303e-02   1.32010303e-02   1.32010303e-02   1.32010303e-02   1.32010303e-02   1.32010303e-02   1.32010303e-02   1.32010303e-02   1.32010303e-02   1.32010303e-02   1.32010303e-02   1.32010303e-02   1.32010303e-02   1.32010303e-02   1.32010303e-02   1.32010303e-02   1.32010303e-02   1.32010303e-02   1.32010303e-02   1.32010303e-02   1.32010303e-02   1.32010303e-02   1.32010303e-02   1.32010303e-02   1.32010303e-02   1.32010303e-02   1.32010303e-02   1.32010303e-02   1.32010303e-02   1.32010303e-02   1.32010303e-02   1.32010303e-02   1.32010303e-02   1.32010303e-02   1.32010303e-02   1.32010303e-02   1.32010303e-02   1.32010303e-02   1.32010303e-02   1.32010303e-02   1.32010303e-02   1.32010303e-02   1.32010303e-02   1.32010303e-02   1.32010303e-02   1.32010303e-02   1.32010303e-02   1.32010303e-02   1.32010303e-02   1.32010303e-02   1.32010303e-02   1.32010303e-02   1.32010303e-02   1.32010303e-02   1.32010303e-02   1.32010303e-02   1.32010303e-02   1.32010303e-02   1.32010303e-02   1.32010303e-02   1.32010303e-02   1.32010303e-02   1.32010303e-02   1.32010303e-02   1.32010303e-02   1.32010303e-02   1.32010303e-02   1.32010303e-02   1.32010303e-02   1.32010303e-02   1.32010303e-02   1.32010303e-02   1.32010303e-02   1.32010303e-02   1.32010303e-02   1.32010303e-02   1.32010303e-02   1.32010303e-02   1.32010303e-02   1.32010303e-02   1.32010303e-02   1.32010303e-02   1.32010303e-02   1.32010303e-02   1.32010303e-02   1.32010303e-02   1.32010303e-02   1.32010303e-02   1.32010303e-02   1.32010303e-02   1.32010303e-02   1.32010303e-02   1.32010303e-02   1.32010303e-02   1.32010303e-02   1.32010303e-02   1.32010303e-02   1.32010303e-02   1.32010303e-02   1.32010303e-02   1.32010303e-02   1.32010303e-02   1.32010303e-02   1.32010303e-02   1.32010303e-02   1.32010303e-02   1.32010303e-02   1.32010303e-02   1.32010303e-02   1.32010303e-02   1.32010303e-02   1.32010303e-02   1.32010303e-02   1.32010303e-02   1.32010303e-02   1.32010303e-02   1.32010303e-02   1.32010303e-02   1.32010303e-02   1.32010303e-02   1.32010303e-02   1.32010303e-02   1.32010303e-02   1.32010303e-02   1.32010303e-02   1.32010303e-02   1.32010303e-02   1.32010303e-02   1.32010303e-02   1.32010303e-02   1.32010303e-02   1.32010303e-02   1.32010303e-02   1.32010303e-02   1.32010303e-02   1.32010303e-02   1.32010303e-02   1.32010303e-02   1.32010303e-02   1.32010303e-02   1.32010303e-02   1.32010303e-02   1.32010303e-02   1.32010303e-02   1.32010303e-02   1.32010303e-02   1.32010303e-02   1.32010303e-02   1.32010303e-02   1.32010303e-02   1.32010303e-02   1.32010303e-02   1.32010303e-02   1.32010303e-02   1.32010303e-02   1.32010303e-02   1.32010303e-02   1.32010303e-02   1.32010303e-02   1.32010303e-02   1.32010303e-02   1.32010303e-02   1.32010303e-02   1.32010303e-02   1.32010303e-02   1.32010303e-02   1.32010303e-02   1.32010303e-02   1.32010303e-02   1.32010303e-02   1.32010303e-02   1.32010303e-02   1.32010303e-02   1.32010303e-02   1.32010303e-02   1.32010303e-02   1.32010303e-02   1.32010303e-02   1.32010303e-02   1.32010303e-02   1.32010303e-02   1.32010303e-02   1.32010303e-02   1.32010303e-02   1.32010303e-02   1.32010303e-02   1.32010303e-02   1.32010303e-02   1.32010303e-02   1.32010303e-02   1.32010303e-02   1.32010303e-02   1.32010303e-02   1.32010303e-02   1.32010303e-02   1.32010303e-02   1.32010303e-02   
1.32010303e-02   1.32010303e-02   1.32010303e-02   1.32010303e-02   1.32010303e-02   1.32010303e-02   1.32010303e-02   1.32010303e-02   1.32010303e-02   1.32010303e-02   1.32010303e-02   1.32010303e-02   1.32010303e-02   1.32010303e-02   1.32010303e-02   1.32010303e-02   1.32010303e-02   1.32010303e-02   1.32010303e-02   1.32010303e-02   1.32010303e-02   1.32010303e-02   1.32010303e-02   1.32010303e-02   1.32010303e-02   1.32010303e-02   1.32010303e-02   1.32010303e-02   1.32010303e-02   1.32010303e-02   1.32010303e-02   1.32010303e-02   1.32010303e-02   1.32010303e-02   1.32010303e-02   1.32010303e-02   1.32010303e-02   1.32010303e-02   1.32010303e-02   1.32010303e-02   1.32010303e-02   1.32010303e-02   1.32010303e-02   1.32010303e-02   1.32010303e-02   1.32010303e-02   1.32010303e-02   1.32010303e-02   1.32010303e-02   1.32010303e-02   1.32010303e-02   1.32010303e-02   1.32010303e-02   1.32010303e-02   1.32010303e-02   1.32010303e-02   1.32010303e-02   1.32010303e-02   1.32010303e-02   1.32010303e-02   1.32010303e-02   1.32010303e-02   1.32010303e-02   1.32010303e-02   1.32010303e-02   1.32010303e-02   1.32010303e-02   1.32010303e-02   1.32010303e-02   1.32010303e-02   1.32010303e-02   1.32010303e-02   1.32010303e-02   1.32010303e-02   1.32010303e-02   1.32010303e-02   1.32010303e-02   1.32010303e-02   1.32010303e-02   1.32010303e-02   1.32010303e-02   1.32010303e-02   1.32010303e-02   1.32010303e-02   1.32010303e-02   1.32010303e-02   1.32010303e-02   1.32010303e-02   1.32010303e-02   1.32010303e-02   1.32010303e-02   1.32010303e-02   1.32010303e-02   1.32010303e-02   1.32010303e-02   1.32010303e-02   1.32010303e-02   1.32010303e-02   1.32010303e-02   1.32010303e-02   1.32010303e-02   1.32010303e-02   1.32010303e-02   1.32010303e-02   1.32010303e-02   1.32010303e-02   1.32010303e-02   1.32010303e-02   1.32010303e-02   1.32010303e-02   1.32010303e-02   1.32010303e-02   1.32010303e-02   1.32010303e-02   1.32010303e-02   1.32010303e-02   1.32010303e-02   1.32010303e-02   1.32010303e-02   1.32010303e-02   1.32010303e-02   1.32010303e-02   1.32010303e-02   1.32010303e-02   1.32010303e-02   1.32010303e-02   1.32010303e-02   1.32010303e-02   1.32010303e-02   1.32010303e-02   1.32010303e-02   1.32010303e-02   1.32010303e-02   1.32010303e-02   1.32010303e-02   1.32010303e-02   1.32010303e-02   1.32010303e-02   1.32010303e-02   1.32010303e-02   1.32010303e-02   1.32010303e-02   1.32010303e-02   1.32010303e-02   1.32010303e-02   1.32010303e-02   1.32010303e-02   1.32010303e-02   1.32010303e-02   1.32010303e-02   1.32010303e-02   1.32010303e-02   1.32010303e-02   1.32010303e-02   1.32010303e-02   1.32010303e-02   1.32010303e-02   
1.32010303e-02   1.32010303e-02   1.32010303e-02   1.32010303e-02   1.32010303e-02   1.32010303e-02   1.32010303e-02   1.32010303e-02   1.32010303e-02   1.32010303e-02   1.32010303e-02   1.32010303e-02   1.32010303e-02   1.32010303e-02   1.32010303e-02   1.32010303e-02   1.32010303e-02   1.32010303e-02   1.32010303e-02   1.32010303e-02   1.32010303e-02   1.32010303e-02   1.32010303e-02   1.32010303e-02   1.32010303e-02   1.32010303e-02   1.32010303e-02   1.32010303e-02   1.32010303e-02   1.32010303e-02   1.32010303e-02   1.32010303e-02   1.32010303e-02   1.32010303e-02   1.32010303e-02   1.32010303e-02   1.32010303e-02   1.32010303e-02   1.32010303e-02   1.32010303e-02   1.32010303e-02   1.32010303e-02   1.32010303e-02   1.32010303e-02   1.32010303e-02   1.32010303e-02   1.32010303e-02   1.32010303e-02   1.32010303e-02   1.32010303e-02   1.32010303e-02   1.32010303e-02   1.32010303e-02   1.32010303e-02   1.32010303e-02   1.32010303e-02   1.32010303e-02   1.32010303e-02   1.32010303e-02   1.32010303e-02   1.32010303e-02   1.32010303e-02   1.32010303e-02   
1.32010303e-02   1.32010303e-02   1.32010303e-02   1.32010303e-02   1.32010303e-02   1.32010303e-02   1.32010303e-02   1.32010303e-02   1.32010303e-02   1.32010303e-02   1.32010303e-02   1.32010303e-02   1.32010303e-02   1.32010303e-02   1.32010303e-02   1.32010303e-02   1.32010303e-02   1.32010303e-02   1.32010303e-02   1.32010303e-02   1.32010303e-02   1.32010303e-02   1.32010303e-02   1.32010303e-02   1.32010303e-02   1.32010303e-02   1.32010303e-02   1.32010303e-02   1.32010303e-02   1.32010303e-02   1.32010303e-02   1.32010303e-02   1.32010303e-02   1.32010303e-02   1.32010303e-02   1.32010303e-02   1.32010303e-02   1.32010303e-02   1.32010303e-02   1.32010303e-02   1.32010303e-02   1.32010303e-02   1.32010303e-02   1.32010303e-02   1.32010303e-02   1.32010303e-02   1.32010303e-02   1.32010303e-02   1.32010303e-02   1.32010303e-02   1.32010303e-02   1.32010303e-02   1.32010303e-02   
1.32010303e-02   1.32010303e-02   1.32010303e-02   1.32010303e-02   1.32010303e-02   1.32010303e-02   1.32010303e-02   1.32010303e-02   1.32010303e-02   1.32010303e-02   1.32010303e-02   1.32010303e-02   1.32010303e-02   1.32010303e-02   1.32010303e-02   1.32010303e-02   1.32010303e-02   1.32010303e-02   1.32010303e-02   1.32010303e-02   1.32010303e-02   1.32010303e-02   1.32010303e-02   1.32010303e-02   1.32010303e-02   1.32010303e-02   1.32010303e-02   1.32010303e-02   1.32010303e-02   1.32010303e-02   1.32010303e-02   1.32010303e-02   1.32010303e-02   1.32010303e-02   1.32010303e-02   1.32010303e-02   1.32010303e-02   1.32010303e-02   1.32010303e-02   1.32010303e-02   1.32010303e-02   1.32010303e-02   1.32010303e-02   1.32010303e-02   1.32010303e-02   1.32010303e-02   1.32010303e-02   1.32010303e-02   1.32010303e-02   1.32010303e-02   1.32010303e-02   1.32010303e-02   1.32010303e-02   1.32010303e-02   1.32010303e-02   
1.32010303e-02   1.32010303e-02   1.32010303e-02   1.32010303e-02   1.32010303e-02   1.32010303e-02   1.32010303e-02   1.32010303e-02   1.32010303e-02   1.32010303e-02   1.32010303e-02   1.32010303e-02   1.32010303e-02   1.32010303e-02   1.32010303e-02   1.32010303e-02   1.32010303e-02   1.32010303e-02   1.32010303e-02   1.32010303e-02   1.32010303e-02   1.32010303e-02   1.32010303e-02   1.32010303e-02   1.32010303e-02   1.32010303e-02   1.32010303e-02   1.32010303e-02   1.32010303e-02   1.32010303e-02   1.32010303e-02   1.32010303e-02   1.32010303e-02   1.32010303e-02   1.32010303e-02   1.32010303e-02   1.32010303e-02   1.32010303e-02   1.09644323e-02   1.09644323e-02   
1.32010303e-02   1.32010303e-02   1.32010303e-02   1.32010303e-02   1.32010303e-02   1.32010303e-02   1.32010303e-02   1.32010303e-02   1.32010303e-02   1.32010303e-02   1.32010303e-02   1.32010303e-02   1.32010303e-02   1.32010303e-02   1.32010303e-02   1.32010303e-02   1.32010303e-02   1.32010303e-02   1.32010303e-02   1.32010303e-02   1.32010303e-02   1.32010303e-02   1.32010303e-02   1.32010303e-02   1.32010303e-02   1.32010303e-02   1.32010303e-02   1.32010303e-02   1.32010303e-02   1.32010303e-02   1.32010303e-02   1.32010303e-02   1.32010303e-02   1.32010303e-02   1.32010303e-02   1.32010303e-02   1.32010303e-02   1.32010303e-02   1.32010303e-02   1.32010303e-02   1.32010303e-02   1.32010303e-02   
1.32010303e-02   1.32010303e-02   1.32010303e-02   1.32010303e-02   1.32010303e-02   1.32010303e-02   1.32010303e-02   1.32010303e-02   1.32010303e-02   1.32010303e-02   1.32010303e-02   1.32010303e-02   1.32010303e-02   1.32010303e-02   1.32010303e-02   1.32010303e-02   1.32010303e-02   1.32010303e-02   1.32010303e-02   1.32010303e-02   1.32010303e-02   1.32010303e-02   1.32010303e-02   1.32010303e-02   1.32010303e-02   1.32010303e-02   1.32010303e-02   1.32010303e-02   1.32010303e-02   1.32010303e-02   1.32010303e-02   1.32010303e-02   1.32010303e-02   1.32010303e-02   1.32010303e-02   1.32010303e-02   1.32010303e-02   1.32010303e-02   1.32010303e-02   1.32010303e-02   1.32010303e-02   1.32010303e-02   1.32010303e-02   1.32010303e-02   1.32010303e-02   1.32010303e-02   1.32010303e-02   1.32010303e-02   1.32010303e-02   1.32010303e-02   1.32010303e-02   1.32010303e-02   1.32010303e-02   1.32010303e-02   1.32010303e-02   1.32010303e-02   1.32010303e-02   1.32010303e-02   1.32010303e-02   1.32010303e-02   1.32010303e-02   1.32010303e-02   1.32010303e-02   1.32010303e-02   1.32010303e-02   6.88021418e-03   6.88021418e-03   6.88021417e-03   6.88021417e-03   6.88021415e-03   6.88021403e-03   6.88021297e-03   6.88020621e-03   6.88019335e-03   6.88018819e-03   6.88018196e-03   6.88017465e-03   6.88014603e-03   6.88013452e-03   6.88009551e-03   6.88003257e-03   6.87981477e-03   3.85688851e-03   2.79402384e-03   2.46113158e-03   2.34980300e-03   2.32046001e-03   2.15457250e-03   2.15457152e-03   2.15457016e-03   1.96325298e-03   1.96325234e-03   1.96325093e-03   1.94715356e-03   1.77704044e-03   1.59729009e-03   1.59728810e-03   1.46093320e-03   1.46093219e-03   1.46093137e-03   1.46093057e-03   1.46093004e-03   1.36505141e-03   1.32775326e-03   1.32775322e-03   1.32775317e-03   1.32775314e-03   1.32775310e-03   1.32775308e-03   1.32775306e-03   1.32775303e-03   1.32775302e-03   1.32775300e-03   1.32775299e-03   1.32775298e-03   1.32775297e-03   1.32775297e-03   1.32775296e-03   
1.32010303e-02   1.32010303e-02   1.32010303e-02   1.32010303e-02   1.32010303e-02   1.32010303e-02   1.32010303e-02   1.32010303e-02   1.32010303e-02   1.32010303e-02   1.32010303e-02   1.32010303e-02   1.32010303e-02   1.32010303e-02   1.32010303e-02   1.32010303e-02   1.32010303e-02   1.32010303e-02   1.32010303e-02   1.32010303e-02   1.32010303e-02   1.32010303e-02   1.32010303e-02   1.32010303e-02   1.32010303e-02   1.32010303e-02   1.32010303e-02   1.32010303e-02   1.32010303e-02   1.32010303e-02   1.32010303e-02   1.32010303e-02   1.32010303e-02   1.32010303e-02   1.32010303e-02   1.32010303e-02   1.32010303e-02   1.32010303e-02   1.32010303e-02   1.32010303e-02   1.32010303e-02   1.32010303e-02   1.32010303e-02   1.32010303e-02   1.32010303e-02   1.32010303e-02   1.32010303e-02   1.32010303e-02   1.32010303e-02   1.32010303e-02   1.32010303e-02   1.32010303e-02   1.32010303e-02   1.32010303e-02   1.32010303e-02   1.32010303e-02   1.32010303e-02   1.32010303e-02   1.32010303e-02   1.32010303e-02   1.32010303e-02   1.32010303e-02   1.32010303e-02   1.32010303e-02   1.32010303e-02   1.32010303e-02   1.32010303e-02   1.32010303e-02   1.32010303e-02   1.32010303e-02   1.32010303e-02   1.32010303e-02   1.32010303e-02   1.32010303e-02   1.32010303e-02   1.32010303e-02   1.32010303e-02   1.32010303e-02   1.32010303e-02   1.32010303e-02   1.32010303e-02   1.32010303e-02   1.32010303e-02   1.32010303e-02   1.32010303e-02   1.32010303e-02   1.32010303e-02   1.32010303e-02   1.32010303e-02   1.32010303e-02   1.32010303e-02   1.32010303e-02   1.32010303e-02   1.32010303e-02   1.32010303e-02   1.32010303e-02   1.32010303e-02   1.32010303e-02   1.32010303e-02   1.32010303e-02   1.32010303e-02   1.32010303e-02   1.32010303e-02   1.32010303e-02   1.32010303e-02   1.32010303e-02   1.32010303e-02   1.32010303e-02   1.32010303e-02   1.32010303e-02   1.32010303e-02   1.32010303e-02   1.32010303e-02   1.32010303e-02   1.32010303e-02   1.32010303e-02   1.32010303e-02   1.32010303e-02   1.32010303e-02   1.32010303e-02   1.32010303e-02   1.32010303e-02   1.32010303e-02   1.32010303e-02   1.32010303e-02   1.32010303e-02   1.32010303e-02   1.32010303e-02   1.32010303e-02   1.32010303e-02   1.32010303e-02   1.32010303e-02   1.32010303e-02   1.32010303e-02   1.32010303e-02   1.32010303e-02   1.32010303e-02   1.32010303e-02   1.32010303e-02   1.32010303e-02   1.32010303e-02   1.32010303e-02   1.32010303e-02   1.32010303e-02   1.32010303e-02   1.32010303e-02   1.32010303e-02   1.32010303e-02   1.32010303e-02   1.32010303e-02   1.32010303e-02   1.32010303e-02   1.32010303e-02   1.32010303e-02   1.32010303e-02   1.32010303e-02   1.32010303e-02   1.32010303e-02   1.32010303e-02   1.32010303e-02   1.32010303e-02   1.32010303e-02   1.32010303e-02   1.32010303e-02   1.32010303e-02   1.32010303e-02   1.32010303e-02   1.32010303e-02   1.32010303e-02   1.32010303e-02   1.32010303e-02   1.32010303e-02   1.32010303e-02   1.32010303e-02   1.32010303e-02   1.32010303e-02   1.32010303e-02   1.32010303e-02   1.32010303e-02   1.32010303e-02   1.32010303e-02   1.32010303e-02   1.32010303e-02   1.32010303e-02   1.32010303e-02   1.32010303e-02   1.32010303e-02   1.32010303e-02   1.32010303e-02   1.32010303e-02   1.32010303e-02   1.32010303e-02   1.32010303e-02   1.32010303e-02   1.32010303e-02   1.32010303e-02   1.32010303e-02   1.32010303e-02   1.32010303e-02   1.32010303e-02   1.32010303e-02   1.32010303e-02   1.32010303e-02   1.32010303e-02   1.32010303e-02   1.32010303e-02   1.32010303e-02   1.32010303e-02   1.32010303e-02   1.32010303e-02   1.32010303e-02   1.32010303e-02   1.32010303e-02   1.32010303e-02   1.32010303e-02   1.32010303e-02   1.32010303e-02   1.32010303e-02   1.32010303e-02   1.32010303e-02   1.32010303e-02   1.32010303e-02   1.32010303e-02   1.32010303e-02   1.32010303e-02   1.32010303e-02   1.32010303e-02   1.32010303e-02   1.32010303e-02   1.32010303e-02   1.32010303e-02   1.32010303e-02   1.32010303e-02   1.32010303e-02   1.32010303e-02   1.32010303e-02   1.32010303e-02   1.32010303e-02   1.32010303e-02   1.32010303e-02   1.32010303e-02   1.32010303e-02   1.32010303e-02   1.32010303e-02   1.32010303e-02   1.32010303e-02   1.32010303e-02   1.32010303e-02   1.32010303e-02   1.32010303e-02   1.32010303e-02   1.32010303e-02   1.32010303e-02   1.32010303e-02   1.32010303e-02   1.32010303e-02   1.32010303e-02   1.32010303e-02   1.32010303e-02   1.32010303e-02   1.32010303e-02   1.32010303e-02   1.32010303e-02   1.32010303e-02   1.32010303e-02   1.32010303e-02   1.32010303e-02   1.32010303e-02   1.32010303e-02   1.32010303e-02   1.32010303e-02   1.32010303e-02   1.32010303e-02   1.32010303e-02   1.32010303e-02   1.32010303e-02   1.32010303e-02   8.75039032e-03   8.75039032e-03   8.75039031e-03   8.75039025e-03   8.75038994e-03   8.75038726e-03   8.75037518e-03   8.75035223e-03   8.75029603e-03   8.75023112e-03   8.75006956e-03   8.74979569e-03   5.06897540e-03   4.31026104e-03   3.95426511e-03   3.95426269e-03   3.72290814e-03   3.60702913e-03   3.60702729e-03   3.26593323e-03   3.26593159e-03   2.97914423e-03   2.97914106e-03   2.69761262e-03   2.42362706e-03   2.20742860e-03   2.20742734e-03   2.20742590e-03   2.20742478e-03   1.99548153e-03   1.99548073e-03   1.99548054e-03   1.99548039e-03   1.99548027e-03   1.99548017e-03   1.99548015e-03   1.99548008e-03   1.99548001e-03   1.99547997e-03   1.99547991e-03   1.99547988e-03   1.99547985e-03   1.99547983e-03   1.99547981e-03   1.99547979e-03   1.99547978e-03   1.99547976e-03   1.99547976e-03   
1.32010303e-02   1.32010303e-02   1.32010303e-02   1.32010303e-02   1.32010303e-02   1.32010303e-02   1.32010303e-02   1.32010303e-02   1.32010303e-02   1.32010303e-02   1.32010303e-02   1.32010303e-02   1.32010303e-02   1.32010303e-02   1.32010303e-02   1.32010303e-02   1.32010303e-02   1.32010303e-02   1.32010303e-02   1.32010303e-02   1.32010303e-02   1.32010303e-02   1.32010303e-02   1.32010303e-02   1.32010303e-02   1.32010303e-02   1.32010303e-02   1.32010303e-02   1.32010303e-02   1.32010302e-02   1.32010657e-02   1.32010302e-02   1.32010302e-02   1.32010303e-02   1.32010303e-02   1.32010303e-02   1.32010303e-02   
1.32010303e-02   1.32010303e-02   1.32010303e-02   1.32010303e-02   1.32010303e-02   1.32010303e-02   1.32010303e-02   1.32010303e-02   1.32010303e-02   1.32010303e-02   1.32010303e-02   1.32010303e-02   1.32010303e-02   1.32010303e-02   1.32010303e-02   1.32010303e-02   1.32010303e-02   1.32010303e-02   1.32010303e-02   1.32010303e-02   1.32010303e-02   1.32010303e-02   1.32010303e-02   1.32010303e-02   1.32010303e-02   1.32010303e-02   1.32010303e-02   1.32010303e-02   1.32010303e-02   1.32010303e-02   1.32010310e-02   1.32010303e-02   1.32010303e-02   1.32010303e-02   1.32010303e-02   1.32010303e-02   1.32010303e-02   1.32010303e-02   1.32010303e-02   1.32010303e-02   
1.32010303e-02   1.32010303e-02   1.32010303e-02   1.32010303e-02   1.32010303e-02   1.32010303e-02   1.32010303e-02   1.32010303e-02   1.32010303e-02   1.32010303e-02   1.32010303e-02   1.32010303e-02   1.32010303e-02   1.32010303e-02   1.32010303e-02   1.32010303e-02   1.32010303e-02   1.32010303e-02   1.32010303e-02   1.32010303e-02   1.32010303e-02   1.32010303e-02   1.32010303e-02   1.32010303e-02   1.32010303e-02   1.32010303e-02   1.32010303e-02   1.32010303e-02   1.32010303e-02   1.32010297e-02   1.32010303e-02   1.32010307e-02   1.32010303e-02   1.32010303e-02   1.32010302e-02   1.32010303e-02   1.32010303e-02   1.32010303e-02   1.32010303e-02   1.32010303e-02   
1.32010303e-02   1.32010303e-02   1.32010303e-02   1.32010303e-02   1.32010303e-02   1.32010303e-02   1.32010303e-02   1.32010303e-02   1.32010303e-02   1.32010303e-02   1.32010303e-02   1.32010303e-02   1.32010303e-02   1.32010303e-02   1.32010303e-02   1.32010303e-02   1.32010303e-02   1.32010303e-02   1.32010303e-02   1.32010303e-02   1.32010303e-02   1.32010303e-02   1.32010303e-02   1.32010303e-02   1.32010303e-02   1.32010303e-02   1.32010319e-02   1.32010304e-02   1.32010304e-02   1.32010303e-02   1.32010303e-02   1.32010303e-02   1.32010302e-02   1.32010301e-02   1.32010301e-02   1.32010301e-02   
1.32010303e-02   1.32010303e-02   1.32010303e-02   1.32010303e-02   1.32010303e-02   1.32010303e-02   1.32010303e-02   1.32010303e-02   1.32010303e-02   1.32010303e-02   1.32010303e-02   1.32010303e-02   1.32010303e-02   1.32010303e-02   1.32010303e-02   1.32010303e-02   1.32010303e-02   1.32010303e-02   1.32010303e-02   1.32010303e-02   1.32010303e-02   1.32010303e-02   1.32010303e-02   1.32010303e-02   1.32010303e-02   1.32010614e-02   1.32010312e-02   1.32010275e-02   1.32010303e-02   1.32010303e-02   1.32010303e-02   1.32010303e-02   1.32010295e-02   1.32010264e-02   1.32010264e-02   1.32010264e-02   
1.32010303e-02   1.32010303e-02   1.32010303e-02   1.32010303e-02   1.32010303e-02   1.32010303e-02   1.32010303e-02   1.32010303e-02   1.32010303e-02   1.32010303e-02   1.32010303e-02   1.32010303e-02   1.32010303e-02   1.32010303e-02   1.32010303e-02   1.32010303e-02   1.32010303e-02   1.32010303e-02   1.32010303e-02   1.32010303e-02   1.32010303e-02   1.32010303e-02   1.32010303e-02   1.32010303e-02   1.32010303e-02   1.32010303e-02   1.32010303e-02   1.32010313e-02   1.32010302e-02   1.32010303e-02   1.32010303e-02   1.32010303e-02   1.32010303e-02   1.32010247e-02   1.32009852e-02   1.32009852e-02   1.32009852e-02   
1.32010303e-02   1.32010303e-02   1.32010303e-02   1.32010303e-02   1.32010303e-02   1.32010303e-02   1.32010303e-02   1.32010303e-02   1.32010303e-02   1.32010303e-02   1.32010303e-02   1.32010303e-02   1.32010303e-02   1.32010303e-02   1.32010303e-02   1.32010303e-02   1.32010303e-02   1.32010303e-02   1.32010303e-02   1.32010303e-02   1.32010303e-02   1.32010303e-02   1.32010303e-02   1.32010303e-02   1.32010303e-02   1.32010305e-02   1.32010302e-02   1.32010303e-02   1.32010304e-02   1.32010308e-02   1.32010303e-02   1.32010302e-02   1.32009897e-02   1.32009822e-02   1.32009822e-02   
1.32010303e-02   1.32010303e-02   1.32010303e-02   1.32010303e-02   1.32010303e-02   1.32010303e-02   1.32010303e-02   1.32010303e-02   1.32010303e-02   1.32010303e-02   1.32010303e-02   1.32010303e-02   1.32010303e-02   1.32010303e-02   1.32010303e-02   1.32010303e-02   1.32010303e-02   1.32010303e-02   1.32010303e-02   1.32010303e-02   1.32010303e-02   1.32010303e-02   1.32010303e-02   1.32010303e-02   1.32010303e-02   1.32010303e-02   1.32010302e-02   1.32010304e-02   1.32010303e-02   1.32010303e-02   1.32010303e-02   1.32010297e-02   1.32010271e-02   1.32010271e-02   
1.32010303e-02   1.32010303e-02   1.32010303e-02   1.32010303e-02   1.32010303e-02   1.32010303e-02   1.32010303e-02   1.32010303e-02   1.32010303e-02   1.32010303e-02   1.32010303e-02   1.32010303e-02   1.32010303e-02   1.32010303e-02   1.32010303e-02   1.32010303e-02   1.32010303e-02   1.32010303e-02   1.32010303e-02   1.32010303e-02   1.32010303e-02   1.32010303e-02   1.32010303e-02   1.32010303e-02   1.32010303e-02   1.32010303e-02   1.32010303e-02   1.32010303e-02   1.32010300e-02   1.32010303e-02   1.32010303e-02   1.32010303e-02   1.32010303e-02   
1.32010303e-02   1.32010303e-02   1.32010303e-02   1.32010303e-02   1.32010303e-02   1.32010303e-02   1.32010303e-02   1.32010303e-02   1.32010303e-02   1.32010303e-02   1.32010303e-02   1.32010303e-02   1.32010303e-02   1.32010303e-02   1.32010303e-02   1.32010303e-02   1.32010303e-02   1.32010303e-02   1.32010303e-02   1.32010303e-02   1.32010303e-02   1.32010303e-02   1.32010303e-02   1.32010303e-02   1.32010303e-02   1.32010303e-02   1.32010303e-02   1.32010297e-02   1.32010303e-02   1.32010303e-02   1.32010303e-02   1.32010128e-02   1.32009942e-02   
1.32010303e-02   1.32010303e-02   1.32010303e-02   1.32010303e-02   1.32010303e-02   1.32010303e-02   1.32010303e-02   1.32010303e-02   1.32010303e-02   1.32010303e-02   1.32010303e-02   1.32010303e-02   1.32010303e-02   1.32010303e-02   1.32010303e-02   1.32010303e-02   1.32010303e-02   1.32010303e-02   1.32010303e-02   1.32010303e-02   1.32010303e-02   1.32010303e-02   1.32010303e-02   1.32010303e-02   1.32010303e-02   1.32010306e-02   1.32010306e-02   
1.32010303e-02   1.32010303e-02   1.32010303e-02   1.32010303e-02   1.32010303e-02   1.32010303e-02   1.32010303e-02   1.32010303e-02   1.32010303e-02   1.32010303e-02   1.32010303e-02   1.32010303e-02   1.32010303e-02   1.32010303e-02   1.32010303e-02   1.32010303e-02   1.32010303e-02   1.32010303e-02   1.32010303e-02   1.32010303e-02   1.32010303e-02   1.32010303e-02   1.32010303e-02   
1.32010303e-02   1.32010303e-02   1.32010303e-02   1.32010303e-02   1.32010303e-02   1.32010303e-02   1.32010303e-02   1.32010303e-02   1.32010303e-02   1.32010303e-02   1.32010303e-02   1.32010303e-02   1.32010303e-02   1.32010303e-02   1.32010303e-02   1.32010303e-02   1.32010303e-02   1.32010303e-02   1.32010303e-02   1.32010303e-02   1.32010303e-02   1.32010303e-02   1.32010303e-02   1.32010303e-02   1.31369802e-02   
1.32010303e-02   1.32010303e-02   1.32010303e-02   1.32010303e-02   1.32010303e-02   1.32010303e-02   1.32010303e-02   1.32010303e-02   1.32010303e-02   1.32010303e-02   1.32010303e-02   1.32010303e-02   1.32010303e-02   1.32010303e-02   1.32010303e-02   1.32010303e-02   1.32010303e-02   1.32010303e-02   1.32010303e-02   1.32010303e-02   1.32010303e-02   1.32010303e-02   1.32010303e-02   1.32010303e-02   
1.32010303e-02   1.32010303e-02   1.32010303e-02   1.32010303e-02   1.32010303e-02   1.32010303e-02   1.32010303e-02   1.32010303e-02   1.32010303e-02   1.32010303e-02   1.32010303e-02   1.32010303e-02   1.32010303e-02   1.32010303e-02   1.32010303e-02   1.32010303e-02   1.32010303e-02   1.32010303e-02   1.32010303e-02   1.32010303e-02   1.32010303e-02   1.32010303e-02   1.32010303e-02   
1.32010303e-02   1.32010303e-02   1.32010303e-02   1.32010303e-02   1.32010303e-02   1.32010303e-02   1.32010303e-02   1.32010303e-02   1.32010303e-02   1.32010303e-02   1.32010303e-02   1.32010303e-02   1.32010303e-02   1.32010303e-02   1.32010303e-02   1.32010303e-02   1.32010303e-02   1.32010303e-02   1.32010303e-02   1.32010303e-02   1.32010303e-02   1.32010303e-02   
1.32010303e-02   1.32010303e-02   1.32010303e-02   1.32010303e-02   1.32010303e-02   1.32010303e-02   1.32010303e-02   1.32010303e-02   1.32010303e-02   1.32010303e-02   1.32010303e-02   1.32010303e-02   1.32010303e-02   1.32010303e-02   1.32010303e-02   1.32010303e-02   1.32010303e-02   1.32010303e-02   1.32010303e-02   1.32010303e-02   1.32010303e-02   
1.32010303e-02   1.32010303e-02   1.32010303e-02   1.32010303e-02   1.32010303e-02   1.32010303e-02   1.32010303e-02   1.32010303e-02   1.32010303e-02   1.32010303e-02   1.32010303e-02   1.32010303e-02   1.32010303e-02   1.32010303e-02   1.32010303e-02   1.32010303e-02   1.32010303e-02   1.32010303e-02   1.32010303e-02   1.32010303e-02   1.32010303e-02   1.32010303e-02   
1.32010303e-02   1.32010303e-02   1.32010303e-02   1.32010303e-02   1.32010303e-02   1.32010303e-02   1.32010303e-02   1.32010303e-02   1.32010303e-02   1.32010303e-02   1.32010303e-02   1.32010303e-02   1.32010303e-02   1.32010303e-02   1.32010303e-02   1.32010303e-02   1.32010303e-02   1.32010303e-02   1.32010303e-02   1.32010303e-02   1.32010303e-02   1.32010303e-02   
1.32010303e-02   1.32010303e-02   1.32010303e-02   1.32010303e-02   1.32010303e-02   1.32010303e-02   1.32010303e-02   1.32010303e-02   1.32010303e-02   1.32010303e-02   1.32010303e-02   1.32010303e-02   1.32010303e-02   1.32010303e-02   1.32010303e-02   1.32010303e-02   1.32010303e-02   1.32010303e-02   1.32010303e-02   1.32010303e-02   1.32010303e-02   1.32010303e-02   
1.32010303e-02   1.32010303e-02   1.32010303e-02   1.32010303e-02   1.32010303e-02   1.32010303e-02   1.32010303e-02   1.32010303e-02   1.32010303e-02   1.32010303e-02   1.32010303e-02   1.32010303e-02   1.32010303e-02   1.32010303e-02   1.32010303e-02   1.32010303e-02   1.32010303e-02   1.32010303e-02   1.32010303e-02   1.32010303e-02   1.32010303e-02   1.32010303e-02   
1.32010303e-02   1.32010303e-02   1.32010303e-02   1.32010303e-02   1.32010303e-02   1.32010303e-02   1.32010303e-02   1.32010303e-02   1.32010303e-02   1.32010303e-02   1.32010303e-02   1.32010303e-02   1.32010303e-02   1.32010303e-02   1.32010303e-02   1.32010303e-02   1.32010303e-02   1.32010303e-02   1.32010303e-02   1.32010303e-02   1.32010303e-02   
1.32010303e-02   1.32010303e-02   1.32010303e-02   1.32010303e-02   1.32010303e-02   1.32010303e-02   1.32010303e-02   1.32010303e-02   1.32010303e-02   1.32010303e-02   1.32010303e-02   1.32010303e-02   1.32010303e-02   1.32010303e-02   1.32010303e-02   1.32010303e-02   1.32010303e-02   1.32010303e-02   1.32010303e-02   1.32010303e-02   1.32010303e-02   
1.32010303e-02   1.32010303e-02   1.32010303e-02   1.32010303e-02   1.32010303e-02   1.32010303e-02   1.32010303e-02   1.32010303e-02   1.32010303e-02   1.32010303e-02   1.32010303e-02   1.32010303e-02   1.32010303e-02   1.32010303e-02   1.32010303e-02   1.32010303e-02   1.32010303e-02   1.32010303e-02   1.32010303e-02   1.32010303e-02   1.32010303e-02   
1.32010303e-02   1.32010303e-02   1.32010303e-02   1.32010303e-02   1.32010303e-02   1.32010303e-02   1.32010303e-02   1.32010303e-02   1.32010303e-02   1.32010303e-02   1.32010303e-02   1.32010303e-02   1.32010303e-02   1.32010303e-02   1.32010303e-02   1.32010303e-02   1.32010303e-02   1.32010303e-02   1.32010303e-02   1.32010303e-02   1.32010303e-02   
1.32010303e-02   1.32010303e-02   1.32010303e-02   1.32010303e-02   1.32010303e-02   1.32010303e-02   1.32010303e-02   1.32010303e-02   1.32010303e-02   1.32010303e-02   1.32010303e-02   1.32010303e-02   1.32010303e-02   1.32010303e-02   1.32010303e-02   1.32010303e-02   1.32010303e-02   1.32010303e-02   1.32010303e-02   1.32010303e-02   1.32010303e-02   
1.32010303e-02   1.32010303e-02   1.32010303e-02   1.32010303e-02   1.32010303e-02   1.32010303e-02   1.32010303e-02   1.32010303e-02   1.32010303e-02   1.32010303e-02   1.32010303e-02   1.32010303e-02   1.32010303e-02   1.32010303e-02   1.32010303e-02   1.32010303e-02   1.32010303e-02   1.32010303e-02   1.32010303e-02   1.32010303e-02   1.32010303e-02   
1.32010303e-02   1.32010303e-02   1.32010303e-02   1.32010303e-02   1.32010303e-02   1.32010303e-02   1.32010303e-02   1.32010303e-02   1.32010303e-02   1.32010303e-02   1.32010303e-02   1.32010303e-02   1.32010303e-02   1.32010303e-02   1.32010303e-02   1.32010303e-02   1.32010303e-02   1.32010303e-02   1.32010303e-02   1.32010303e-02   1.32010303e-02   
1.32010303e-02   1.32010303e-02   1.32010303e-02   1.32010303e-02   1.32010303e-02   1.32010303e-02   1.32010303e-02   1.32010303e-02   1.32010303e-02   1.32010303e-02   1.32010303e-02   1.32010303e-02   1.32010303e-02   1.32010303e-02   1.32010303e-02   1.32010303e-02   1.32010303e-02   1.32010303e-02   1.32010303e-02   1.32010303e-02   
1.32010303e-02   1.32010303e-02   1.32010303e-02   1.32010303e-02   1.32010303e-02   1.32010303e-02   1.32010303e-02   1.32010303e-02   1.32010303e-02   1.32010303e-02   1.32010303e-02   1.32010303e-02   1.32010303e-02   1.32010303e-02   1.32010303e-02   1.32010303e-02   1.32010303e-02   1.32010303e-02   1.32010303e-02   1.32010303e-02   
1.32010303e-02   1.32010303e-02   1.32010303e-02   1.32010303e-02   1.32010303e-02   1.32010303e-02   1.32010303e-02   1.32010303e-02   1.32010303e-02   1.32010303e-02   1.32010303e-02   1.32010303e-02   1.32010303e-02   1.32010303e-02   1.32010303e-02   1.32010303e-02   1.32010303e-02   1.32010303e-02   1.32010303e-02   1.32010303e-02   1.32010303e-02   
1.32010303e-02   1.32010303e-02   1.32010303e-02   1.32010303e-02   1.32010303e-02   1.32010303e-02   1.32010303e-02   1.32010303e-02   1.32010303e-02   1.32010303e-02   1.32010303e-02   1.32010303e-02   1.32010303e-02   1.32010303e-02   1.32010303e-02   1.32010303e-02   1.32010303e-02   1.32010303e-02   1.32010303e-02   1.32010303e-02   
1.32010303e-02   1.32010303e-02   1.32010303e-02   1.32010303e-02   1.32010303e-02   1.32010303e-02   1.32010303e-02   1.32010303e-02   1.32010303e-02   1.32010303e-02   1.32010303e-02   1.32010303e-02   1.32010303e-02   1.32010303e-02   1.32010303e-02   1.32010303e-02   1.32010303e-02   1.32010303e-02   1.32010303e-02   1.32010303e-02   
1.32010303e-02   1.32010303e-02   1.32010303e-02   1.32010303e-02   1.32010303e-02   1.32010303e-02   1.32010303e-02   1.32010303e-02   1.32010303e-02   1.32010303e-02   1.32010303e-02   1.32010303e-02   1.32010303e-02   1.32010303e-02   1.32010303e-02   1.32010303e-02   1.32010303e-02   1.32010303e-02   1.32010303e-02   1.32010303e-02   
1.32010303e-02   1.32010303e-02   1.32010303e-02   1.32010303e-02   1.32010303e-02   1.32010303e-02   1.32010303e-02   1.32010303e-02   1.32010303e-02   1.32010303e-02   1.32010303e-02   1.32010303e-02   1.32010303e-02   1.32010303e-02   1.32010303e-02   1.32010303e-02   1.32010303e-02   1.32010303e-02   1.32010303e-02   1.32010303e-02   
1.32010303e-02   1.32010303e-02   1.32010303e-02   1.32010303e-02   1.32010303e-02   1.32010303e-02   1.32010303e-02   1.32010303e-02   1.32010303e-02   1.32010303e-02   1.32010303e-02   1.32010303e-02   1.32010303e-02   1.32010303e-02   1.32010303e-02   1.32010303e-02   1.32010303e-02   1.32010303e-02   1.32010303e-02   1.32010303e-02   
1.32010303e-02   1.32010303e-02   1.32010303e-02   1.32010303e-02   1.32010303e-02   1.32010303e-02   1.32010303e-02   1.32010303e-02   1.32010303e-02   1.32010303e-02   1.32010303e-02   1.32010303e-02   1.32010303e-02   1.32010303e-02   1.32010303e-02   1.32010303e-02   1.32010303e-02   1.32010303e-02   1.32010303e-02   1.32010303e-02   
1.32010303e-02   1.32010303e-02   1.32010303e-02   1.32010303e-02   1.32010303e-02   1.32010303e-02   1.32010303e-02   1.32010303e-02   1.32010303e-02   1.32010303e-02   1.32010303e-02   1.32010303e-02   1.32010303e-02   1.32010303e-02   1.32010303e-02   1.32010303e-02   1.32010303e-02   1.32010303e-02   1.32010303e-02   
1.32010303e-02   1.32010303e-02   1.32010303e-02   1.32010303e-02   1.32010303e-02   1.32010303e-02   1.32010303e-02   1.32010303e-02   1.32010303e-02   1.32010303e-02   1.32010303e-02   1.32010303e-02   1.32010303e-02   1.32010303e-02   1.32010303e-02   1.32010303e-02   1.32010303e-02   1.31266410e-02   1.28389997e-02   
1.32010303e-02   1.32010303e-02   1.32010303e-02   1.32010303e-02   1.32010303e-02   1.32010303e-02   1.21843939e-02   1.19637973e-02   1.19518114e-02   1.17440620e-02   1.13976073e-02   1.12567729e-02   1.11098998e-02   1.10198185e-02   1.09651418e-02   1.09189933e-02   1.08820648e-02   1.08746170e-02   1.08285858e-02   
1.32010303e-02   1.32010303e-02   1.32010303e-02   1.32010303e-02   1.32010303e-02   1.32010303e-02   1.32010303e-02   1.32010303e-02   1.32010303e-02   1.32010303e-02   1.32010303e-02   1.32010303e-02   1.30342114e-02   1.27487350e-02   1.24881032e-02   1.22643499e-02   1.20936922e-02   1.20658104e-02   1.18553460e-02   
1.32010303e-02   1.32010303e-02   1.32010303e-02   1.32010303e-02   1.32010303e-02   1.32010303e-02   1.19513801e-02   1.13148842e-02   1.12851861e-02   1.09126743e-02   1.05668227e-02   1.04344259e-02   1.03278646e-02   1.02160135e-02   1.01225386e-02   1.00384750e-02   9.97533391e-03   9.97316294e-03   9.89778650e-03   
1.32010303e-02   1.32010303e-02   1.32010303e-02   1.32010303e-02   1.32010303e-02   1.24151069e-02   9.81794548e-03   9.54918455e-03   9.53648365e-03   9.30853191e-03   9.14985567e-03   9.14985566e-03   9.14985565e-03   9.14985564e-03   9.14985563e-03   9.14985562e-03   9.14985562e-03   9.14985561e-03   
1.32010303e-02   1.32010303e-02   1.32010303e-02   1.32010303e-02   1.32010303e-02   1.01348063e-02   8.72255194e-03   8.36549109e-03   8.34808314e-03   8.03816820e-03   7.47025391e-03   7.28139974e-03   7.05772694e-03   6.87032713e-03   6.70217287e-03   6.57892718e-03   6.56942541e-03   6.44221151e-03   
1.32010303e-02   1.32010303e-02   1.32010303e-02   1.32010303e-02   1.32010303e-02   1.00200854e-02   7.94524108e-03   7.66439657e-03   7.61049703e-03   6.63155908e-03   3.67092553e-03   2.39780162e-03   8.30697260e-04   1.25422770e-06   1.12796200e-06   1.05005390e-06   9.57509122e-07   
1.32010303e-02   1.32010303e-02   1.32010303e-02   1.32010303e-02   1.32010303e-02   3.74404324e-03   1.96953787e-17   1.47209627e-17   1.44882727e-17   1.03115250e-17   2.32763545e-18   2.15252138e-24   9.32317115e-25   1.92633350e-28   1.67083905e-28   1.60099685e-28   1.42717778e-28   
1.32010303e-02   1.32010303e-02   1.32010303e-02   1.32010303e-02   5.96952555e-18   0.00000000e+00   0.00000000e+00   0.00000000e+00   0.00000000e+00   0.00000000e+00   0.00000000e+00   0.00000000e+00   0.00000000e+00   0.00000000e+00   0.00000000e+00   
1.32010303e-02   1.32010303e-02   1.32010303e-02   1.32010303e-02   1.18847985e-02   0.00000000e+00   0.00000000e+00   0.00000000e+00   0.00000000e+00   0.00000000e+00   0.00000000e+00   0.00000000e+00   0.00000000e+00   0.00000000e+00   0.00000000e+00   0.00000000e+00   0.00000000e+00   
1.32010303e-02   1.32010303e-02   1.32010303e-02   1.29135171e-02   0.00000000e+00   0.00000000e+00   0.00000000e+00   0.00000000e+00   0.00000000e+00   0.00000000e+00   0.00000000e+00   0.00000000e+00   0.00000000e+00   0.00000000e+00   0.00000000e+00   
1.32010303e-02   1.32010303e-02   1.32010303e-02   9.15708706e-03   0.00000000e+00   0.00000000e+00   0.00000000e+00   0.00000000e+00   0.00000000e+00   0.00000000e+00   0.00000000e+00   0.00000000e+00   0.00000000e+00   0.00000000e+00   0.00000000e+00   
1.32010303e-02   1.32010303e-02   1.32010303e-02   5.44477598e-03   0.00000000e+00   0.00000000e+00   0.00000000e+00   0.00000000e+00   0.00000000e+00   0.00000000e+00   0.00000000e+00   0.00000000e+00   0.00000000e+00   0.00000000e+00   0.00000000e+00   
1.32010303e-02   1.32010303e-02   1.32010303e-02   1.08074012e-03   0.00000000e+00   0.00000000e+00   0.00000000e+00   0.00000000e+00   0.00000000e+00   0.00000000e+00   0.00000000e+00   0.00000000e+00   0.00000000e+00   0.00000000e+00   
1.32010303e-02   1.32010303e-02   1.32010303e-02   3.74437952e-04   0.00000000e+00   0.00000000e+00   0.00000000e+00   0.00000000e+00   0.00000000e+00   0.00000000e+00   0.00000000e+00   0.00000000e+00   0.00000000e+00   0.00000000e+00   
1.32010303e-02   1.32010303e-02   1.32010303e-02   1.17219137e-05   0.00000000e+00   0.00000000e+00   0.00000000e+00   0.00000000e+00   0.00000000e+00   0.00000000e+00   0.00000000e+00   0.00000000e+00   0.00000000e+00   
1.32010303e-02   1.32010303e-02   1.32010303e-02   5.00020982e-09   0.00000000e+00   0.00000000e+00   0.00000000e+00   0.00000000e+00   0.00000000e+00   0.00000000e+00   0.00000000e+00   0.00000000e+00   0.00000000e+00   0.00000000e+00   
1.32010303e-02   1.32010303e-02   1.32010303e-02   3.27992360e-11   0.00000000e+00   0.00000000e+00   0.00000000e+00   0.00000000e+00   0.00000000e+00   0.00000000e+00   0.00000000e+00   0.00000000e+00   0.00000000e+00   0.00000000e+00   
1.32010303e-02   1.32010303e-02   1.32010303e-02   1.23722472e-23   0.00000000e+00   0.00000000e+00   0.00000000e+00   0.00000000e+00   0.00000000e+00   0.00000000e+00   0.00000000e+00   0.00000000e+00   0.00000000e+00   
1.32010303e-02   1.32010303e-02   1.32010303e-02   7.12082180e-25   0.00000000e+00   0.00000000e+00   0.00000000e+00   0.00000000e+00   0.00000000e+00   0.00000000e+00   0.00000000e+00   0.00000000e+00   0.00000000e+00   0.00000000e+00   0.00000000e+00   
1.32010303e-02   1.32010303e-02   1.32010303e-02   2.00344921e-26   0.00000000e+00   0.00000000e+00   0.00000000e+00   0.00000000e+00   0.00000000e+00   0.00000000e+00   0.00000000e+00   0.00000000e+00   0.00000000e+00   0.00000000e+00   
1.32010303e-02   1.32010303e-02   1.32010303e-02   7.11051606e-33   0.00000000e+00   0.00000000e+00   0.00000000e+00   0.00000000e+00   0.00000000e+00   0.00000000e+00   0.00000000e+00   0.00000000e+00   0.00000000e+00   0.00000000e+00   
1.32010303e-02   1.32010303e-02   1.32010303e-02   3.12810425e-33   0.00000000e+00   0.00000000e+00   0.00000000e+00   0.00000000e+00   0.00000000e+00   0.00000000e+00   0.00000000e+00   0.00000000e+00   0.00000000e+00   0.00000000e+00   
1.32010303e-02   1.32010303e-02   1.32010303e-02   2.48860033e-33   0.00000000e+00   0.00000000e+00   0.00000000e+00   0.00000000e+00   0.00000000e+00   0.00000000e+00   0.00000000e+00   0.00000000e+00   0.00000000e+00   0.00000000e+00   
1.32010303e-02   1.32010303e-02   1.32010303e-02   0.00000000e+00   0.00000000e+00   0.00000000e+00   0.00000000e+00   0.00000000e+00   0.00000000e+00   0.00000000e+00   0.00000000e+00   0.00000000e+00   0.00000000e+00   0.00000000e+00   
1.32010303e-02   1.32010303e-02   0.00000000e+00   0.00000000e+00   0.00000000e+00   0.00000000e+00   0.00000000e+00   0.00000000e+00   0.00000000e+00   0.00000000e+00   0.00000000e+00   0.00000000e+00   0.00000000e+00   
1.32010303e-02   1.32010303e-02   1.32010303e-02   0.00000000e+00   0.00000000e+00   0.00000000e+00   0.00000000e+00   0.00000000e+00   0.00000000e+00   0.00000000e+00   0.00000000e+00   0.00000000e+00   0.00000000e+00   0.00000000e+00   0.00000000e+00   
1.32010303e-02   1.32010303e-02   1.32010303e-02   0.00000000e+00   0.00000000e+00   0.00000000e+00   0.00000000e+00   0.00000000e+00   0.00000000e+00   0.00000000e+00   0.00000000e+00   0.00000000e+00   0.00000000e+00   0.00000000e+00   0.00000000e+00   
1.32010303e-02   1.32010303e-02   0.00000000e+00   0.00000000e+00   0.00000000e+00   0.00000000e+00   0.00000000e+00   0.00000000e+00   0.00000000e+00   0.00000000e+00   0.00000000e+00   0.00000000e+00   0.00000000e+00   0.00000000e+00   0.00000000e+00   
1.32010303e-02   1.32010303e-02   1.32010303e-02   1.01808157e-31   0.00000000e+00   0.00000000e+00   0.00000000e+00   0.00000000e+00   0.00000000e+00   0.00000000e+00   0.00000000e+00   0.00000000e+00   0.00000000e+00   0.00000000e+00   0.00000000e+00   0.00000000e+00   
1.32010303e-02   1.32010303e-02   1.32010303e-02   6.01980773e-32   0.00000000e+00   0.00000000e+00   0.00000000e+00   0.00000000e+00   0.00000000e+00   0.00000000e+00   0.00000000e+00   0.00000000e+00   0.00000000e+00   0.00000000e+00   0.00000000e+00   0.00000000e+00   
1.32010303e-02   1.32010303e-02   1.32010303e-02   0.00000000e+00   0.00000000e+00   0.00000000e+00   0.00000000e+00   0.00000000e+00   0.00000000e+00   0.00000000e+00   0.00000000e+00   0.00000000e+00   0.00000000e+00   0.00000000e+00   0.00000000e+00   0.00000000e+00   
1.32010303e-02   1.32010303e-02   0.00000000e+00   0.00000000e+00   0.00000000e+00   0.00000000e+00   0.00000000e+00   0.00000000e+00   0.00000000e+00   0.00000000e+00   0.00000000e+00   0.00000000e+00   0.00000000e+00   0.00000000e+00   0.00000000e+00   
1.32010303e-02   1.32010303e-02   0.00000000e+00   0.00000000e+00   0.00000000e+00   0.00000000e+00   0.00000000e+00   0.00000000e+00   0.00000000e+00   0.00000000e+00   0.00000000e+00   0.00000000e+00   0.00000000e+00   0.00000000e+00   0.00000000e+00   
1.32010303e-02   1.32010303e-02   0.00000000e+00   0.00000000e+00   0.00000000e+00   0.00000000e+00   0.00000000e+00   0.00000000e+00   0.00000000e+00   0.00000000e+00   0.00000000e+00   0.00000000e+00   0.00000000e+00   0.00000000e+00   0.00000000e+00   
1.32010303e-02   1.32010303e-02   0.00000000e+00   0.00000000e+00   0.00000000e+00   0.00000000e+00   0.00000000e+00   0.00000000e+00   0.00000000e+00   0.00000000e+00   0.00000000e+00   0.00000000e+00   0.00000000e+00   0.00000000e+00   0.00000000e+00   
1.32010303e-02   1.32010303e-02   8.80932571e-33   0.00000000e+00   0.00000000e+00   0.00000000e+00   0.00000000e+00   0.00000000e+00   0.00000000e+00   0.00000000e+00   0.00000000e+00   0.00000000e+00   0.00000000e+00   0.00000000e+00   0.00000000e+00   0.00000000e+00   
1.32010303e-02   1.32010303e-02   1.32010303e-02   0.00000000e+00   0.00000000e+00   0.00000000e+00   0.00000000e+00   0.00000000e+00   0.00000000e+00   0.00000000e+00   0.00000000e+00   0.00000000e+00   0.00000000e+00   0.00000000e+00   0.00000000e+00   0.00000000e+00   0.00000000e+00   0.00000000e+00   
1.32010303e-02   1.32010303e-02   1.32010303e-02   0.00000000e+00   0.00000000e+00   0.00000000e+00   0.00000000e+00   0.00000000e+00   0.00000000e+00   0.00000000e+00   0.00000000e+00   0.00000000e+00   0.00000000e+00   0.00000000e+00   0.00000000e+00   0.00000000e+00   0.00000000e+00   
1.32010303e-02   1.32010303e-02   0.00000000e+00   0.00000000e+00   0.00000000e+00   0.00000000e+00   0.00000000e+00   0.00000000e+00   0.00000000e+00   0.00000000e+00   0.00000000e+00   0.00000000e+00   0.00000000e+00   0.00000000e+00   0.00000000e+00   0.00000000e+00   0.00000000e+00   
1.32010303e-02   1.32010303e-02   1.32010303e-02   0.00000000e+00   0.00000000e+00   0.00000000e+00   0.00000000e+00   0.00000000e+00   0.00000000e+00   0.00000000e+00   0.00000000e+00   0.00000000e+00   0.00000000e+00   0.00000000e+00   0.00000000e+00   0.00000000e+00   0.00000000e+00   0.00000000e+00   0.00000000e+00   
1.32010303e-02   1.32010303e-02   0.00000000e+00   0.00000000e+00   0.00000000e+00   0.00000000e+00   0.00000000e+00   0.00000000e+00   0.00000000e+00   0.00000000e+00   0.00000000e+00   0.00000000e+00   0.00000000e+00   0.00000000e+00   0.00000000e+00   0.00000000e+00   0.00000000e+00   0.00000000e+00   
1.32010303e-02   1.32010303e-02   0.00000000e+00   0.00000000e+00   0.00000000e+00   0.00000000e+00   0.00000000e+00   0.00000000e+00   0.00000000e+00   0.00000000e+00   0.00000000e+00   0.00000000e+00   0.00000000e+00   0.00000000e+00   0.00000000e+00   0.00000000e+00   0.00000000e+00   0.00000000e+00   
1.32010303e-02   1.32010303e-02   1.20867717e-25   0.00000000e+00   0.00000000e+00   0.00000000e+00   0.00000000e+00   0.00000000e+00   0.00000000e+00   0.00000000e+00   0.00000000e+00   0.00000000e+00   0.00000000e+00   0.00000000e+00   0.00000000e+00   0.00000000e+00   0.00000000e+00   0.00000000e+00   0.00000000e+00   0.00000000e+00   0.00000000e+00   0.00000000e+00   0.00000000e+00   0.00000000e+00   0.00000000e+00   0.00000000e+00   0.00000000e+00   0.00000000e+00   0.00000000e+00   0.00000000e+00   0.00000000e+00   0.00000000e+00   0.00000000e+00   0.00000000e+00   0.00000000e+00   
1.32010303e-02   1.32010303e-02   2.39053235e-03   0.00000000e+00   0.00000000e+00   0.00000000e+00   0.00000000e+00   0.00000000e+00   0.00000000e+00   0.00000000e+00   0.00000000e+00   0.00000000e+00   0.00000000e+00   0.00000000e+00   0.00000000e+00   0.00000000e+00   0.00000000e+00   0.00000000e+00   0.00000000e+00   0.00000000e+00   0.00000000e+00   0.00000000e+00   0.00000000e+00   0.00000000e+00   0.00000000e+00   0.00000000e+00   0.00000000e+00   0.00000000e+00   0.00000000e+00   0.00000000e+00   0.00000000e+00   0.00000000e+00   0.00000000e+00   0.00000000e+00   0.00000000e+00   0.00000000e+00   0.00000000e+00   0.00000000e+00   0.00000000e+00   0.00000000e+00   0.00000000e+00   0.00000000e+00   0.00000000e+00   0.00000000e+00   0.00000000e+00   0.00000000e+00   0.00000000e+00   0.00000000e+00   0.00000000e+00   0.00000000e+00   0.00000000e+00   0.00000000e+00   0.00000000e+00   0.00000000e+00   0.00000000e+00   0.00000000e+00   0.00000000e+00   0.00000000e+00   0.00000000e+00   0.00000000e+00   
1.32010303e-02   1.25383508e-03   1.45754240e-32   0.00000000e+00   0.00000000e+00   0.00000000e+00   0.00000000e+00   0.00000000e+00   0.00000000e+00   0.00000000e+00   0.00000000e+00   0.00000000e+00   0.00000000e+00   0.00000000e+00   0.00000000e+00   0.00000000e+00   0.00000000e+00   0.00000000e+00   0.00000000e+00   0.00000000e+00   0.00000000e+00   0.00000000e+00   0.00000000e+00   0.00000000e+00   0.00000000e+00   0.00000000e+00   0.00000000e+00   0.00000000e+00   0.00000000e+00   0.00000000e+00   0.00000000e+00   0.00000000e+00   0.00000000e+00   0.00000000e+00   0.00000000e+00   0.00000000e+00   0.00000000e+00   0.00000000e+00   0.00000000e+00   0.00000000e+00   0.00000000e+00   0.00000000e+00   0.00000000e+00   0.00000000e+00   0.00000000e+00   0.00000000e+00   0.00000000e+00   0.00000000e+00   0.00000000e+00   0.00000000e+00   0.00000000e+00   0.00000000e+00   0.00000000e+00   0.00000000e+00   0.00000000e+00   0.00000000e+00   0.00000000e+00   0.00000000e+00   0.00000000e+00   0.00000000e+00   0.00000000e+00   0.00000000e+00   0.00000000e+00   0.00000000e+00   0.00000000e+00   0.00000000e+00   0.00000000e+00   0.00000000e+00   0.00000000e+00   0.00000000e+00   0.00000000e+00   0.00000000e+00   0.00000000e+00   0.00000000e+00   0.00000000e+00   0.00000000e+00   0.00000000e+00   0.00000000e+00   0.00000000e+00   0.00000000e+00   0.00000000e+00   0.00000000e+00   0.00000000e+00   0.00000000e+00   0.00000000e+00   0.00000000e+00   0.00000000e+00   0.00000000e+00   
1.32010303e-02   2.39924285e-03   1.88807567e-05   0.00000000e+00   0.00000000e+00   0.00000000e+00   0.00000000e+00   0.00000000e+00   0.00000000e+00   0.00000000e+00   0.00000000e+00   0.00000000e+00   0.00000000e+00   0.00000000e+00   0.00000000e+00   0.00000000e+00   0.00000000e+00   0.00000000e+00   0.00000000e+00   0.00000000e+00   0.00000000e+00   0.00000000e+00   0.00000000e+00   0.00000000e+00   0.00000000e+00   0.00000000e+00   0.00000000e+00   0.00000000e+00   0.00000000e+00   0.00000000e+00   0.00000000e+00   0.00000000e+00   0.00000000e+00   0.00000000e+00   0.00000000e+00   0.00000000e+00   0.00000000e+00   0.00000000e+00   0.00000000e+00   0.00000000e+00   0.00000000e+00   0.00000000e+00   0.00000000e+00   0.00000000e+00   0.00000000e+00   0.00000000e+00   0.00000000e+00   0.00000000e+00   0.00000000e+00   0.00000000e+00   0.00000000e+00   0.00000000e+00   0.00000000e+00   0.00000000e+00   0.00000000e+00   0.00000000e+00   0.00000000e+00   0.00000000e+00   0.00000000e+00   0.00000000e+00   0.00000000e+00   0.00000000e+00   0.00000000e+00   0.00000000e+00   0.00000000e+00   0.00000000e+00   0.00000000e+00   0.00000000e+00   0.00000000e+00   0.00000000e+00   0.00000000e+00   0.00000000e+00   0.00000000e+00   0.00000000e+00   0.00000000e+00   0.00000000e+00   0.00000000e+00   0.00000000e+00   0.00000000e+00   0.00000000e+00   0.00000000e+00   0.00000000e+00   0.00000000e+00   0.00000000e+00   0.00000000e+00   0.00000000e+00   0.00000000e+00   0.00000000e+00   0.00000000e+00   0.00000000e+00   0.00000000e+00   0.00000000e+00   0.00000000e+00   0.00000000e+00   0.00000000e+00   0.00000000e+00   0.00000000e+00   0.00000000e+00   0.00000000e+00   0.00000000e+00   0.00000000e+00   0.00000000e+00   0.00000000e+00   0.00000000e+00   0.00000000e+00   0.00000000e+00   0.00000000e+00   0.00000000e+00   0.00000000e+00   0.00000000e+00   0.00000000e+00   
1.32010303e-02   1.26930618e-03   2.42856684e-05   0.00000000e+00   0.00000000e+00   0.00000000e+00   0.00000000e+00   0.00000000e+00   0.00000000e+00   0.00000000e+00   0.00000000e+00   0.00000000e+00   0.00000000e+00   0.00000000e+00   0.00000000e+00   0.00000000e+00   0.00000000e+00   0.00000000e+00   0.00000000e+00   0.00000000e+00   0.00000000e+00   0.00000000e+00   0.00000000e+00   0.00000000e+00   0.00000000e+00   0.00000000e+00   0.00000000e+00   0.00000000e+00   0.00000000e+00   0.00000000e+00   0.00000000e+00   0.00000000e+00   0.00000000e+00   0.00000000e+00   0.00000000e+00   0.00000000e+00   0.00000000e+00   0.00000000e+00   0.00000000e+00   0.00000000e+00   0.00000000e+00   0.00000000e+00   0.00000000e+00   0.00000000e+00   0.00000000e+00   0.00000000e+00   0.00000000e+00   0.00000000e+00   0.00000000e+00   0.00000000e+00   0.00000000e+00   0.00000000e+00   0.00000000e+00   0.00000000e+00   0.00000000e+00   0.00000000e+00   0.00000000e+00   0.00000000e+00   0.00000000e+00   0.00000000e+00   0.00000000e+00   0.00000000e+00   0.00000000e+00   0.00000000e+00   0.00000000e+00   0.00000000e+00   0.00000000e+00   0.00000000e+00   0.00000000e+00   0.00000000e+00   0.00000000e+00   0.00000000e+00   0.00000000e+00   0.00000000e+00   0.00000000e+00   0.00000000e+00   0.00000000e+00   0.00000000e+00   0.00000000e+00   0.00000000e+00   0.00000000e+00   0.00000000e+00   0.00000000e+00   0.00000000e+00   0.00000000e+00   0.00000000e+00   0.00000000e+00   0.00000000e+00   0.00000000e+00   0.00000000e+00   0.00000000e+00   0.00000000e+00   0.00000000e+00   0.00000000e+00   0.00000000e+00   0.00000000e+00   0.00000000e+00   0.00000000e+00   0.00000000e+00   0.00000000e+00   0.00000000e+00   0.00000000e+00   0.00000000e+00   0.00000000e+00   0.00000000e+00   0.00000000e+00   0.00000000e+00   0.00000000e+00   0.00000000e+00   0.00000000e+00   0.00000000e+00   0.00000000e+00   0.00000000e+00   0.00000000e+00   0.00000000e+00   
1.32010303e-02   1.32010303e-02   5.83707103e-04   2.79781378e-06   0.00000000e+00   0.00000000e+00   0.00000000e+00   0.00000000e+00   0.00000000e+00   0.00000000e+00   0.00000000e+00   0.00000000e+00   0.00000000e+00   0.00000000e+00   0.00000000e+00   0.00000000e+00   0.00000000e+00   0.00000000e+00   0.00000000e+00   0.00000000e+00   0.00000000e+00   0.00000000e+00   0.00000000e+00   0.00000000e+00   0.00000000e+00   0.00000000e+00   0.00000000e+00   0.00000000e+00   0.00000000e+00   0.00000000e+00   0.00000000e+00   0.00000000e+00   0.00000000e+00   0.00000000e+00   0.00000000e+00   0.00000000e+00   0.00000000e+00   0.00000000e+00   0.00000000e+00   0.00000000e+00   0.00000000e+00   0.00000000e+00   0.00000000e+00   0.00000000e+00   0.00000000e+00   0.00000000e+00   0.00000000e+00   0.00000000e+00   0.00000000e+00   0.00000000e+00   0.00000000e+00   0.00000000e+00   0.00000000e+00   0.00000000e+00   0.00000000e+00   0.00000000e+00   0.00000000e+00   0.00000000e+00   0.00000000e+00   0.00000000e+00   0.00000000e+00   0.00000000e+00   0.00000000e+00   0.00000000e+00   0.00000000e+00   0.00000000e+00   0.00000000e+00   0.00000000e+00   0.00000000e+00   0.00000000e+00   0.00000000e+00   0.00000000e+00   0.00000000e+00   0.00000000e+00   0.00000000e+00   0.00000000e+00   0.00000000e+00   0.00000000e+00   0.00000000e+00   0.00000000e+00   0.00000000e+00   0.00000000e+00   0.00000000e+00   0.00000000e+00   0.00000000e+00   0.00000000e+00   0.00000000e+00   0.00000000e+00   0.00000000e+00   0.00000000e+00   0.00000000e+00   0.00000000e+00   0.00000000e+00   0.00000000e+00   0.00000000e+00   0.00000000e+00   0.00000000e+00   0.00000000e+00   0.00000000e+00   0.00000000e+00   0.00000000e+00   0.00000000e+00   0.00000000e+00   0.00000000e+00   0.00000000e+00   0.00000000e+00   0.00000000e+00   0.00000000e+00   0.00000000e+00   0.00000000e+00   0.00000000e+00   0.00000000e+00   0.00000000e+00   0.00000000e+00   0.00000000e+00   0.00000000e+00   0.00000000e+00   0.00000000e+00   0.00000000e+00   0.00000000e+00   0.00000000e+00   
