7.01420945e-02   6.67492131e-02   6.50561891e-02   6.49606578e-02   6.55827371e-02   6.62251157e-02   6.98195385e-02   7.77585938e-02   8.66378337e-02   8.64971326e-02   7.78638593e-02   6.83893758e-02   6.43131629e-02   6.38613086e-02   5.08646885e-02   3.94361894e-02   3.47395808e-02   3.12992658e-02   2.89368922e-02   2.71503216e-02   2.54103421e-02   2.43067055e-02   2.32060152e-02   2.24220246e-02   2.17222493e-02   2.11028098e-02   2.11028030e-02   
7.26139841e-02   7.15288985e-02   7.18115110e-02   8.31834199e-02   9.20132064e-02   9.26602432e-02   8.37949938e-02   7.36961476e-02   7.01686356e-02   6.97205177e-02   5.95743541e-02   5.15829701e-02   4.15618699e-02   4.11867604e-02   
7.72125748e-02   7.70162929e-02   8.87713011e-02   9.73822652e-02   9.86020802e-02   8.94339127e-02   7.94479993e-02   7.63532175e-02   7.58868258e-02   6.24140956e-02   5.23702888e-02   4.88514925e-02   4.88593209e-02   4.94902408e-02   5.14946321e-02   5.19155688e-02   
8.21010825e-02   9.39169147e-02   1.03570527e-01   1.03788101e-01   9.40917067e-02   8.33786553e-02   8.13698777e-02   8.09049788e-02   6.71608740e-02   5.78467729e-02   5.58003147e-02   5.63505879e-02   5.85823328e-02   6.18354912e-02   6.39767135e-02   6.53913920e-02   6.67090021e-02   6.87683778e-02   7.13518986e-02   7.45391497e-02   8.40553235e-02   8.58575048e-02   8.49416746e-02   8.16793977e-02   6.52176350e-02   6.24375883e-02   6.35573699e-02   6.85746384e-02   7.06377422e-02   7.21857908e-02   7.36172078e-02   7.53704773e-02   7.82137013e-02   8.18550280e-02   8.79571692e-02   9.41033332e-02   9.59417320e-02   9.38455416e-02   8.43308117e-02   6.86937441e-02   6.64874799e-02   6.74544685e-02   7.24990158e-02   7.46000428e-02   7.59451854e-02   7.72938672e-02   7.95567384e-02   8.27329142e-02   8.71606846e-02   9.82245236e-02   1.00542836e-01   9.85869975e-02   8.93746820e-02   7.19610358e-02   6.93914556e-02   7.03195257e-02   7.53265117e-02   7.75201011e-02   7.87347498e-02   8.00571705e-02   8.18192207e-02   8.51736343e-02   8.97022155e-02   1.01248957e-01   1.03136147e-01   1.00955683e-01   9.03466970e-02   7.27857621e-02   7.16241438e-02   7.26272828e-02   7.72882105e-02   7.74331262e-02   
8.69162853e-02   9.85952462e-02   1.09371985e-01   1.08067753e-01   9.75930247e-02   8.67722702e-02   8.62866350e-02   8.58165569e-02   7.14744312e-02   6.31612064e-02   6.92334575e-02   7.04273833e-02   7.25368200e-02   7.75914389e-02   7.68313551e-02   7.24146859e-02   6.90882231e-02   6.97464611e-02   7.43434780e-02   7.60757804e-02   7.72185237e-02   7.85222702e-02   8.12071333e-02   8.51854567e-02   9.35803384e-02   9.47856928e-02   9.19665433e-02   7.91544762e-02   7.39976355e-02   7.52557665e-02   7.90383266e-02   8.08528399e-02   8.17984306e-02   8.33512053e-02   8.57321732e-02   8.94702186e-02   1.00003331e-01   1.01106443e-01   9.73385625e-02   8.02186031e-02   7.75118963e-02   7.90008667e-02   8.27073070e-02   8.44256496e-02   8.53007633e-02   8.67321542e-02   8.99701247e-02   9.44712498e-02   1.03894307e-01   1.04778514e-01   1.00117959e-01   8.10122919e-02   8.02308005e-02   8.25786761e-02   8.56689476e-02   8.69466927e-02   8.78053218e-02   8.99010686e-02   9.37929166e-02   1.00574791e-01   1.06272493e-01   1.07026256e-01   1.02350193e-01   8.36341501e-02   8.22587392e-02   8.40457562e-02   8.71450784e-02   8.86967633e-02   8.93731868e-02   9.09396059e-02   9.44223876e-02   1.00141569e-01   1.07928605e-01   1.08757686e-01   1.04029248e-01   8.60350653e-02   8.36497850e-02   8.49485882e-02   8.85461562e-02   9.00792116e-02   9.07351990e-02   9.23902654e-02   9.59260891e-02   1.01774753e-01   1.09366657e-01   1.10298955e-01   1.05602384e-01   8.72598376e-02   8.50517773e-02   8.62977377e-02   8.98347553e-02   9.12852359e-02   9.19411476e-02   9.39734233e-02   9.75899307e-02   1.04264082e-01   1.10601277e-01   1.10883574e-01   1.05759961e-01   8.78069147e-02   8.63164632e-02   8.86672260e-02   9.13873265e-02   9.23545026e-02   9.30954968e-02   9.47837422e-02   9.84480563e-02   1.05224450e-01   1.11400778e-01   1.11303821e-01   1.04373338e-01   8.73493156e-02   8.75101770e-02   9.18271572e-02   9.29509128e-02   9.36503161e-02   9.52063204e-02   9.88770434e-02   1.05349437e-01   1.11721788e-01   1.11618178e-01   1.04595976e-01   8.80080010e-02   8.80876858e-02   9.22761947e-02   9.35256436e-02   9.40971669e-02   9.61281620e-02   1.00123710e-01   1.08167605e-01   1.12936856e-01   1.11752641e-01   1.02333134e-01   8.85535929e-02   8.92329118e-02   9.28294732e-02   9.40044663e-02   9.46036470e-02   9.66654702e-02   1.00613930e-01   1.12355277e-01   1.12556892e-01   1.05978206e-01   8.96461874e-02   8.90730922e-02   9.32396362e-02   9.43008942e-02   9.47642262e-02   9.68286318e-02   1.01255523e-01   1.12340799e-01   1.11921072e-01   1.04254201e-01   8.95816028e-02   8.97431115e-02   9.33928376e-02   9.44919446e-02   9.51089508e-02   9.75116698e-02   1.01765018e-01   1.12376014e-01   1.12460331e-01   1.06775858e-01   9.09144739e-02   8.98820492e-02   9.39280437e-02   9.47930760e-02   9.55446441e-02   9.74989419e-02   1.01789246e-01   1.12383301e-01   1.11783920e-01   1.03796527e-01   9.01324956e-02   9.07112115e-02   9.39209759e-02   9.49139668e-02   9.54350275e-02   9.77867964e-02   1.02017307e-01   1.12266732e-01   1.12052117e-01   1.04667779e-01   9.11357838e-02   9.07237743e-02   9.42891615e-02   9.51505141e-02   9.58561674e-02   9.77625938e-02   1.02090120e-01   1.12206555e-01   1.11953975e-01   1.04913316e-01   9.14129631e-02   9.08647710e-02   9.44397837e-02   9.51626033e-02   9.59015847e-02   9.79086909e-02   1.02145334e-01   1.11892230e-01   1.11565591e-01   1.03987237e-01   9.09765367e-02   9.13426165e-02   9.43982870e-02   9.52340900e-02   9.60769744e-02   9.82177066e-02   1.02989904e-01   1.12047821e-01   1.11471842e-01   1.03487394e-01   9.12309840e-02   9.20139071e-02   9.46371818e-02   9.53626396e-02   9.64153162e-02   9.89129944e-02   1.03951744e-01   1.11492709e-01   1.11164757e-01   1.03586702e-01   9.13659143e-02   9.18854268e-02   9.45151478e-02   9.52640313e-02   9.62627042e-02   9.86886470e-02   1.03809746e-01   1.11291557e-01   1.10775691e-01   1.02919325e-01   9.13213042e-02   9.19697177e-02   9.44948481e-02   9.51749124e-02   9.60193136e-02   9.82323836e-02   1.02887961e-01   1.11012857e-01   1.10666442e-01   1.03094334e-01   9.14572598e-02   9.18922045e-02   9.44369279e-02   9.51451260e-02   9.59427701e-02   9.80575086e-02   1.02761892e-01   1.10891397e-01   1.10467512e-01   1.02774404e-01   9.14066062e-02   9.20622198e-02   9.44750472e-02   9.50813146e-02   9.63631459e-02   9.99322133e-02   1.07095603e-01   1.10981262e-01   1.09127769e-01   9.96751559e-02   9.14881830e-02   9.20334060e-02   9.43856900e-02   9.49902031e-02   9.63907791e-02   1.00036835e-01   1.10426131e-01   1.09569910e-01   1.01576986e-01   9.12126325e-02   9.18009151e-02   9.41069720e-02   9.47511753e-02   9.63544946e-02   1.00027617e-01   1.10025519e-01   1.09675592e-01   1.02532719e-01   9.16993034e-02   9.15320048e-02   9.40890631e-02   9.46953174e-02   9.57423410e-02   9.82424694e-02   1.03562278e-01   1.09453217e-01   1.09180443e-01   1.02206061e-01   9.15725419e-02   9.14115762e-02   9.38732188e-02   9.44030996e-02   9.56809327e-02   9.92083580e-02   1.09097179e-01   1.08305905e-01   1.00507656e-01   9.10842074e-02   9.14076756e-02   9.36700835e-02   9.42347026e-02   9.56629355e-02   9.92931506e-02   1.09133092e-01   1.08362131e-01   1.00593711e-01   9.11274587e-02   9.13369711e-02   9.35308963e-02   9.40599657e-02   9.51826573e-02   9.86319889e-02   1.08444081e-01   1.07440483e-01   9.93677496e-02   9.10718702e-02   9.16271541e-02   9.34041076e-02   9.39480972e-02   9.53427569e-02   9.89262684e-02   1.07914125e-01   1.06634742e-01   9.82185556e-02   9.05938070e-02   9.17363554e-02   9.32157938e-02   9.38957799e-02   9.60360288e-02   1.00710098e-01   1.07575520e-01   1.07119719e-01   9.99537761e-02   9.07943180e-02   9.14444064e-02   9.30847582e-02   9.37523410e-02   9.59720620e-02   1.00493261e-01   1.06846758e-01   1.06386031e-01   1.00754608e-01   9.09063591e-02   9.07150294e-02   9.27128535e-02   9.33673049e-02   9.52438929e-02   9.93928816e-02   1.06650556e-01   1.05721022e-01   9.79033434e-02   9.03347037e-02   9.08070901e-02   9.24209495e-02   9.30457158e-02   9.51359631e-02   9.96931987e-02   1.05882599e-01   1.05089682e-01   9.90620926e-02   9.00742232e-02   9.02988278e-02   9.20041275e-02   9.26457021e-02   9.45560918e-02   9.86590384e-02   1.05405549e-01   1.04567200e-01   9.85097839e-02   8.98638227e-02   9.04140719e-02   9.18320121e-02   9.25352553e-02   9.48151570e-02   9.96801469e-02   1.04827871e-01   1.04033663e-01   9.80666674e-02   8.95895385e-02   9.00147306e-02   9.14297681e-02   9.22355664e-02   9.38787580e-02   9.79061804e-02   1.04104783e-01   1.03236888e-01   9.72167519e-02   8.96750712e-02   8.93148253e-02   9.10225340e-02   9.18614143e-02   9.34854929e-02   9.74798281e-02   1.03558376e-01   1.02424988e-01   9.61285608e-02   8.91521177e-02   8.91989136e-02   9.07256469e-02   9.16624927e-02   9.40654680e-02   9.91290459e-02   1.02967537e-01   1.01338509e-01   9.30525162e-02   8.86101831e-02   9.05585886e-02   9.15669949e-02   9.43543796e-02   1.02647989e-01   1.00568703e-01   9.20002947e-02   8.83063743e-02   9.01628215e-02   9.11382342e-02   9.31891270e-02   9.81338357e-02   1.01681866e-01   1.00094041e-01   9.35633620e-02   8.80099273e-02   8.98011641e-02   9.10008345e-02   9.41166513e-02   1.00913212e-01   9.93572067e-02   9.28284646e-02   8.76793667e-02   8.94380776e-02   9.09737094e-02   9.42062892e-02   9.98877814e-02   9.84577655e-02   9.21350023e-02   8.72728847e-02   8.90213344e-02   9.02553725e-02   9.33829374e-02   9.90320706e-02   9.79724660e-02   9.22294388e-02   8.68546594e-02   8.83688644e-02   8.94362318e-02   9.23836834e-02   9.77176215e-02   9.59035795e-02   8.96082619e-02   8.64375103e-02   8.78043023e-02   8.93818947e-02   9.32551865e-02   9.56060474e-02   9.30601446e-02   8.72433972e-02   8.68946846e-02   8.82730724e-02   9.13961199e-02   8.86649186e-02   8.63354479e-02   8.79481869e-02   8.77268882e-02   8.66079452e-02   7.60121408e-02   7.15337177e-02   5.69810605e-02   5.08668062e-02   4.78040056e-02   4.50151364e-02   4.39147897e-02   4.44585922e-02   4.58816003e-02   4.73624420e-02   4.93148704e-02   5.17359374e-02   5.78363897e-02   6.18760128e-02   7.05972687e-02   7.47578143e-02   8.06341842e-02   8.57228317e-02   8.57919387e-02   8.02462963e-02   6.49808067e-02   5.76291412e-02   5.23902927e-02   4.80683059e-02   4.43831620e-02   4.10942642e-02   3.76297896e-02   3.44420031e-02   3.16332368e-02   2.94781418e-02   2.76483416e-02   2.62145794e-02   2.48546830e-02   2.37633044e-02   2.28412786e-02   2.18067571e-02   2.10980472e-02   2.02723452e-02   1.96390618e-02   1.91234255e-02   1.86274472e-02   1.82266293e-02   1.78594065e-02   1.78322216e-02   
9.60145925e-02   1.08794160e-01   1.19762229e-01   1.17786852e-01   1.06677180e-01   9.58098190e-02   9.53227699e-02   8.46575812e-02   7.47228293e-02   7.29136581e-02   7.74893858e-02   7.89196494e-02   8.12784670e-02   8.65634120e-02   8.59462280e-02   8.26363802e-02   8.17198199e-02   8.57890931e-02   8.66948780e-02   8.81771479e-02   9.17014490e-02   9.63581375e-02   9.54728792e-02   8.95007988e-02   8.62993560e-02   8.75922415e-02   9.04458559e-02   9.14026828e-02   9.26833513e-02   9.53208743e-02   1.00289187e-01   1.05814905e-01   1.05826660e-01   1.00584869e-01   9.09484614e-02   9.11086979e-02   9.46670578e-02   9.56386733e-02   9.67818179e-02   9.94492291e-02   1.04879458e-01   1.10625934e-01   1.09865266e-01   1.02733309e-01   9.43056577e-02   9.49034203e-02   9.79716197e-02   9.88150048e-02   9.98423876e-02   1.02535022e-01   1.07783665e-01   1.13805808e-01   1.12757893e-01   1.04915175e-01   9.71371964e-02   9.80540946e-02   1.00642988e-01   1.01200629e-01   1.02126526e-01   1.04815573e-01   1.10776066e-01   1.16043446e-01   1.14854933e-01   1.06657140e-01   9.96810442e-02   1.03162336e-01   1.03470565e-01   1.04431457e-01   1.07263939e-01   1.14439955e-01   1.17436713e-01   1.14454612e-01   1.04059715e-01   1.00689901e-01   1.04173674e-01   1.04454474e-01   1.05324188e-01   1.08122908e-01   1.14351492e-01   1.19541849e-01   1.18001798e-01   1.09295854e-01   1.02426051e-01   1.03304772e-01   1.05489922e-01   1.05822721e-01   1.06687867e-01   1.09508505e-01   1.16318374e-01   1.20692431e-01   1.18449944e-01   1.08603020e-01   1.03582989e-01   1.06814885e-01   1.06962966e-01   1.07814056e-01   1.10673414e-01   1.17562484e-01   1.21864459e-01   1.20036455e-01   1.10750846e-01   1.05484658e-01   1.08198370e-01   1.08178697e-01   1.09652883e-01   1.13627483e-01   1.21262454e-01   1.19563171e-01   1.10387940e-01   1.06429904e-01   1.08776568e-01   1.08827674e-01   1.10790567e-01   1.15890475e-01   1.20813806e-01   1.18707256e-01   1.11087808e-01   1.06209737e-01   1.08889180e-01   1.08910072e-01   1.10204900e-01   1.14371731e-01   1.22944616e-01   1.21355662e-01   1.12221051e-01   1.07240450e-01   1.08126567e-01   1.09657717e-01   1.09641694e-01   1.10882476e-01   1.15033412e-01   1.23222649e-01   1.21017293e-01   1.10889456e-01   1.07491395e-01   1.09904584e-01   1.09919009e-01   1.11270196e-01   1.15451205e-01   1.23595854e-01   1.22108193e-01   1.12988941e-01   1.07949641e-01   1.10380430e-01   1.10365890e-01   1.12315504e-01   1.17359387e-01   1.24224391e-01   1.22112463e-01   1.14171608e-01   1.08543274e-01   1.10689435e-01   1.10714757e-01   1.12262892e-01   1.17244961e-01   1.24090981e-01   1.22621177e-01   1.15509562e-01   1.09149143e-01   1.09912061e-01   1.10978776e-01   1.10941957e-01   1.12290441e-01   1.16468007e-01   1.24010057e-01   1.22132287e-01   1.14470199e-01   1.09592491e-01   1.10324248e-01   1.11261087e-01   1.11379748e-01   1.13333859e-01   1.18760244e-01   1.24035275e-01   1.21798120e-01   1.13707239e-01   1.09606567e-01   1.11358016e-01   1.11388667e-01   1.12976924e-01   1.17917488e-01   1.24041759e-01   1.22050743e-01   1.14183678e-01   1.10399926e-01   1.11700496e-01   1.11794994e-01   1.13412823e-01   1.18687485e-01   1.22630467e-01   1.19717557e-01   1.11155773e-01   1.11890162e-01   1.12190034e-01   1.14502706e-01   1.21582662e-01   1.17981074e-01   1.11099456e-01   1.09514643e-01   1.11008748e-01   1.11115478e-01   1.12650850e-01   1.17537641e-01   1.23300544e-01   1.20382877e-01   1.11689757e-01   1.09994637e-01   1.11209796e-01   1.11329994e-01   1.13070571e-01   1.18443711e-01   1.22599472e-01   1.18885426e-01   1.11808714e-01   1.10329871e-01   1.11296680e-01   1.11476988e-01   1.13168676e-01   1.18909060e-01   1.21811267e-01   1.17659425e-01   1.10783539e-01   1.11335237e-01   1.11594499e-01   1.13583715e-01   1.20971393e-01   1.17686609e-01   1.11083925e-01   1.09758211e-01   1.10768694e-01   1.10971723e-01   1.12743265e-01   1.18445117e-01   1.21363094e-01   1.17235327e-01   1.10489809e-01   1.09706838e-01   1.10520338e-01   1.11147199e-01   1.13731921e-01   1.20754651e-01   1.17053343e-01   1.10523302e-01   1.09496188e-01   1.10348200e-01   1.11057593e-01   1.13677403e-01   1.20448375e-01   1.17594042e-01   1.11318728e-01   1.09460306e-01   1.10185012e-01   1.10667706e-01   1.12988416e-01   1.19655520e-01   1.16177584e-01   1.09998898e-01   1.08964741e-01   1.09776354e-01   1.10769721e-01   1.14494625e-01   1.19315168e-01   1.15906110e-01   1.09818413e-01   1.08704755e-01   1.09460252e-01   1.10537120e-01   1.14267681e-01   1.18639022e-01   1.15648990e-01   1.09730458e-01   1.08363407e-01   1.09118313e-01   1.10155952e-01   1.13829505e-01   1.18087554e-01   1.15803638e-01   1.10218465e-01   1.07985103e-01   1.08750396e-01   1.09671106e-01   1.13200452e-01   1.17379113e-01   1.14841142e-01   1.09294690e-01   1.07755141e-01   1.08420292e-01   1.09992790e-01   1.15358825e-01   1.15726450e-01   1.10836061e-01   1.07270632e-01   1.07682136e-01   1.09122661e-01   1.13571058e-01   1.10542870e-01   1.06785703e-01   1.07337470e-01   1.10094977e-01   1.09458806e-01   1.07048223e-01   1.07463736e-01   1.01976905e-01   9.59273641e-02   9.43695818e-02   9.11902328e-02   8.18520997e-02   6.88039403e-02   5.77965564e-02   5.08865018e-02   4.58149065e-02   4.12137096e-02   3.43754115e-02   3.15276492e-02   2.93455690e-02   2.76337125e-02   2.61412240e-02   2.47182755e-02   2.35701126e-02   2.24562356e-02   2.15508701e-02   2.07268199e-02   1.98923517e-02   1.93214699e-02   1.86281393e-02   1.81681907e-02   1.79411777e-02   1.75539839e-02   1.72110219e-02   1.68991352e-02   1.65970495e-02   1.65779362e-02   
1.00336478e-01   1.13602308e-01   1.24783675e-01   1.22141486e-01   1.10503040e-01   1.00069257e-01   9.95779481e-02   8.99235292e-02   8.00092246e-02   7.80994033e-02   7.79444109e-02   8.19378091e-02   8.33370503e-02   8.58868235e-02   9.14004841e-02   9.06965676e-02   8.73576075e-02   8.70042982e-02   9.07495440e-02   9.17505927e-02   9.33158272e-02   9.68131222e-02   1.02827488e-01   1.01839801e-01   9.68608693e-02   9.35288827e-02   9.48543932e-02   9.69383280e-02   9.75725511e-02   9.89220447e-02   1.02334655e-01   1.10154879e-01   1.08552327e-01   1.02257783e-01   9.84315671e-02   9.93613524e-02   1.01744113e-01   1.02224230e-01   1.04117686e-01   1.08298566e-01   1.14848159e-01   1.12877725e-01   1.05774861e-01   1.01785767e-01   1.04976841e-01   1.05301250e-01   1.07353492e-01   1.12312635e-01   1.18374897e-01   1.16976588e-01   1.08297266e-01   1.04439093e-01   1.07510402e-01   1.07720225e-01   1.08909229e-01   1.12911881e-01   1.21507492e-01   1.19741218e-01   1.10558081e-01   1.07533563e-01   1.10219515e-01   1.10261950e-01   1.11868084e-01   1.16500923e-01   1.22543436e-01   1.20337275e-01   1.12594138e-01   1.08886940e-01   1.11621797e-01   1.11629403e-01   1.13433110e-01   1.18243026e-01   1.24484756e-01   1.22293153e-01   1.14482107e-01   1.11230231e-01   1.13477403e-01   1.13401383e-01   1.14659117e-01   1.19380965e-01   1.25153358e-01   1.22700718e-01   1.14557476e-01   1.12731575e-01   1.14794935e-01   1.14636093e-01   1.16712110e-01   1.22512167e-01   1.26446013e-01   1.22588910e-01   1.15418817e-01   1.13736816e-01   1.15636931e-01   1.15501378e-01   1.16865051e-01   1.21661915e-01   1.27102929e-01   1.24678619e-01   1.16436850e-01   1.14128056e-01   1.16110254e-01   1.15902177e-01   1.17647747e-01   1.22627408e-01   1.28368089e-01   1.25159631e-01   1.16238851e-01   1.14947307e-01   1.16840167e-01   1.16659594e-01   1.18688267e-01   1.24344016e-01   1.29264542e-01   1.26873947e-01   1.18508880e-01   1.16650429e-01   1.17944873e-01   1.17886944e-01   1.19563488e-01   1.24945275e-01   1.28498366e-01   1.24153115e-01   1.17015309e-01   1.16992410e-01   1.18006689e-01   1.18052239e-01   1.20188636e-01   1.27135924e-01   1.29468546e-01   1.24770189e-01   1.17511150e-01   1.17415928e-01   1.18427911e-01   1.18468622e-01   1.20607599e-01   1.27112729e-01   1.29937694e-01   1.25092506e-01   1.17625412e-01   1.18851705e-01   1.18798807e-01   1.20639794e-01   1.26423513e-01   1.30834576e-01   1.26709985e-01   1.19225706e-01   1.19683020e-01   1.19658773e-01   1.21527979e-01   1.29076196e-01   1.25850979e-01   1.19075603e-01   1.18452089e-01   1.19260052e-01   1.19271377e-01   1.21123644e-01   1.27204020e-01   1.30102855e-01   1.26556068e-01   1.19481996e-01   1.18537228e-01   1.19418351e-01   1.19647583e-01   1.22203318e-01   1.30454699e-01   1.25929298e-01   1.20401263e-01   1.18980007e-01   1.19675310e-01   1.19855631e-01   1.22250650e-01   1.29976285e-01   1.25620503e-01   1.19308927e-01   1.19677979e-01   1.19857192e-01   1.22100815e-01   1.29792954e-01   1.26597457e-01   1.19942986e-01   1.19956464e-01   1.20516987e-01   1.24206044e-01   1.28705238e-01   1.24768421e-01   1.19835994e-01   1.19823575e-01   1.20258277e-01   1.23777673e-01   1.28146311e-01   1.24773856e-01   1.20078441e-01   1.19063475e-01   1.19486546e-01   1.19978353e-01   1.22534238e-01   1.28107651e-01   1.23988046e-01   1.19395971e-01   1.19417140e-01   1.19847254e-01   1.22319646e-01   1.27698828e-01   1.24124832e-01   1.19554057e-01   1.19102565e-01   1.19964109e-01   1.23675947e-01   1.27256218e-01   1.23711825e-01   1.19293140e-01   1.18820514e-01   1.19855986e-01   1.24300407e-01   1.26399749e-01   1.21779977e-01   1.18290255e-01   1.18464321e-01   1.19902058e-01   1.25391808e-01   1.21339614e-01   1.17981418e-01   1.17741158e-01   1.19411908e-01   1.22426229e-01   1.19231716e-01   1.17310799e-01   1.18540739e-01   1.19382762e-01   1.17607124e-01   1.17067544e-01   1.10923578e-01   1.08898099e-01   1.07852500e-01   9.80784715e-02   8.00099772e-02   6.49826779e-02   5.49677086e-02   4.61344337e-02   4.14099401e-02   3.41936313e-02   3.15292731e-02   2.94847872e-02   2.77276045e-02   2.61950206e-02   2.49436775e-02   2.37092211e-02   2.26149205e-02   2.16383615e-02   2.07027750e-02   2.00054205e-02   1.91619161e-02   1.86412249e-02   1.80347911e-02   1.75691719e-02   1.71630844e-02   1.68264548e-02   1.65253234e-02   1.62515692e-02   1.59867569e-02   1.59694147e-02   
1.10589579e-01   1.24659248e-01   1.37051722e-01   1.29981397e-01   1.17845724e-01   1.10436391e-01   1.09930837e-01   9.99919029e-02   9.09495373e-02   9.04576817e-02   9.33803051e-02   9.52633909e-02   1.00479362e-01   1.00210698e-01   1.03334473e-01   1.04857153e-01   1.08667418e-01   1.10603616e-01   1.08267504e-01   1.07821745e-01   1.10070954e-01   1.10685448e-01   1.13474189e-01   1.17384454e-01   1.14577941e-01   1.13605921e-01   1.15244761e-01   1.15788695e-01   1.18643148e-01   1.21782740e-01   1.18803694e-01   1.16948146e-01   1.18724787e-01   1.18874419e-01   1.20687614e-01   1.27244206e-01   1.24417409e-01   1.20605154e-01   1.21986755e-01   1.22069720e-01   1.24123909e-01   1.30445118e-01   1.27704426e-01   1.23902510e-01   1.24901654e-01   1.24890572e-01   1.26729275e-01   1.31992507e-01   1.28259002e-01   1.26920418e-01   1.27186929e-01   1.27404755e-01   1.30486326e-01   1.33050407e-01   1.29931033e-01   1.27580532e-01   1.28474134e-01   1.28379433e-01   1.30399146e-01   1.36097483e-01   1.32263326e-01   1.29905301e-01   1.30210450e-01   1.30322285e-01   1.33694163e-01   1.37365258e-01   1.33045626e-01   1.30944609e-01   1.31403736e-01   1.31306395e-01   1.34472519e-01   1.38809636e-01   1.34939851e-01   1.32518593e-01   1.32511734e-01   1.32621588e-01   1.35809548e-01   1.38563655e-01   1.34984809e-01   1.33704786e-01   1.33413712e-01   1.33782357e-01   1.37683328e-01   1.38652755e-01   1.34705128e-01   1.34070093e-01   1.34883411e-01   1.38818462e-01   1.35168417e-01   1.34422202e-01   1.35461392e-01   1.38902326e-01   1.36468155e-01   1.34850648e-01   1.34732211e-01   1.36134229e-01   1.38806930e-01   1.36727247e-01   1.34786599e-01   1.36823856e-01   1.37266745e-01   1.35416539e-01   1.35126347e-01   1.35859232e-01   1.36171553e-01   1.39752497e-01   1.43412226e-01   1.47605482e-01   1.48832504e-01   1.39033825e-01   1.14672936e-01   8.96769584e-02   6.88932909e-02   5.56097203e-02   4.39220331e-02   3.82347037e-02   3.37310078e-02   3.11198447e-02   2.91018829e-02   2.74746023e-02   2.60230946e-02   2.47032830e-02   2.33867718e-02   2.22005117e-02   2.10437720e-02   1.99878302e-02   1.91510307e-02   1.83932195e-02   1.78216389e-02   1.72150721e-02   1.68287899e-02   1.63343294e-02   1.60196802e-02   1.57196237e-02   1.54671003e-02   1.52393103e-02   1.50439084e-02   1.48553095e-02   1.48420768e-02   
1.20375152e-01   1.36383129e-01   1.48190218e-01   1.39233289e-01   1.25856601e-01   1.20331118e-01   1.19809040e-01   1.10327492e-01   1.01007254e-01   1.00462388e-01   1.03410779e-01   1.06504920e-01   1.10904412e-01   1.14901722e-01   1.19032695e-01   1.22997015e-01   1.35958050e-01   1.52137286e-01   1.70767985e-01   1.78806259e-01   1.89738476e-01   1.98793814e-01   2.02233393e-01   1.89963202e-01   1.55750327e-01   1.13056470e-01   8.28713184e-02   6.04806451e-02   4.52232990e-02   3.96364665e-02   3.41087750e-02   3.13806324e-02   2.92865194e-02   2.75996747e-02   2.60742915e-02   2.46554220e-02   2.33266365e-02   2.20934381e-02   2.07922611e-02   1.96984614e-02   1.87070064e-02   1.79069749e-02   1.72327948e-02   1.67068281e-02   1.62357693e-02   1.58373756e-02   1.56852771e-02   1.52943329e-02   1.50331744e-02   1.47772561e-02   1.45834472e-02   1.43858315e-02   1.42075112e-02   1.40447759e-02   1.39008163e-02   1.38911864e-02   
1.29685921e-01   1.46731854e-01   1.58072272e-01   1.45746771e-01   1.31452093e-01   1.29127457e-01   1.28595189e-01   1.19309016e-01   1.10886367e-01   1.13299348e-01   1.16823133e-01   1.22345675e-01   1.27114685e-01   1.33853561e-01   1.51856535e-01   1.72936697e-01   1.98535401e-01   2.13990164e-01   2.32359316e-01   2.54030938e-01   2.75675978e-01   2.88147224e-01   2.76334917e-01   2.27119114e-01   1.49576587e-01   1.01826611e-01   6.94762427e-02   4.96979805e-02   3.76114599e-02   3.23397308e-02   3.00329878e-02   2.82201919e-02   2.67235025e-02   2.53223091e-02   2.39670044e-02   2.25236915e-02   2.09677371e-02   1.96035827e-02   1.84419422e-02   1.76293185e-02   1.68889998e-02   1.63217028e-02   1.57976087e-02   1.53869979e-02   1.50127644e-02   1.46963684e-02   1.44518562e-02   1.41588777e-02   1.39570691e-02   1.38823568e-02   1.37195792e-02   1.35563224e-02   1.34049260e-02   1.32567528e-02   1.31352625e-02   1.31254113e-02   
1.38543588e-01   1.56654132e-01   1.67711778e-01   1.54696954e-01   1.39279708e-01   1.37526118e-01   1.36981596e-01   1.27464151e-01   1.20189776e-01   1.23436323e-01   1.33714133e-01   1.57232326e-01   1.79736818e-01   2.24921779e-01   2.47610679e-01   2.79278510e-01   3.17336187e-01   3.65014642e-01   4.14862908e-01   4.53913167e-01   4.45945753e-01   3.91712408e-01   2.29209469e-01   1.38550186e-01   8.82403024e-02   5.80719093e-02   3.71144962e-02   3.22611898e-02   2.98473911e-02   2.78111622e-02   2.62939203e-02   2.48477233e-02   2.35316342e-02   2.21674482e-02   2.11593697e-02   2.10884156e-02   2.16857659e-02   2.17853508e-02   2.17861157e-02   
1.47128372e-01   1.66041329e-01   1.77142177e-01   1.63217526e-01   1.47534896e-01   1.45721154e-01   1.45158274e-01   1.35612878e-01   1.29059123e-01   1.32196599e-01   1.44803159e-01   1.68457297e-01   1.93930965e-01   2.55750804e-01   2.88285385e-01   3.35873116e-01   3.97177705e-01   4.85224467e-01   6.02460570e-01   7.55443160e-01   8.98289153e-01   8.82308177e-01   7.86368955e-01   5.60884708e-01   2.70948239e-01   1.58795454e-01   1.01721023e-01   6.81515573e-02   4.57400942e-02   3.41734543e-02   3.08414933e-02   2.85929228e-02   2.69575760e-02   2.54570681e-02   2.40103162e-02   2.26872019e-02   2.16830298e-02   2.13910593e-02   2.13351764e-02   2.14398712e-02   2.20522040e-02   2.20523810e-02   
1.55474736e-01   1.76405799e-01   1.86307740e-01   1.71145511e-01   1.54325962e-01   1.53722663e-01   1.53140303e-01   1.43536389e-01   1.37026277e-01   1.39809020e-01   1.46688371e-01   1.59756588e-01   1.83329763e-01   2.14951270e-01   2.84851904e-01   3.22562985e-01   3.85388946e-01   4.72735048e-01   5.98658723e-01   7.70701732e-01   1.02012901e+00   1.35595735e+00   1.86076310e+00   2.83158951e+00   2.85135743e+00   2.76118798e+00   2.53798606e+00   2.12291653e+00   1.39069003e+00   1.03447533e+00   7.05773392e-01   4.58959899e-01   2.91443936e-01   1.87283285e-01   1.22700784e-01   8.35829763e-02   5.79451057e-02   4.04041369e-02   3.24109560e-02   2.93715624e-02   2.73141800e-02   2.58216305e-02   2.44553085e-02   2.32673323e-02   2.20785278e-02   2.08769650e-02   1.96156368e-02   1.71031245e-02   1.62622462e-02   1.54829801e-02   1.48705803e-02   1.43014305e-02   1.38571993e-02   1.34727669e-02   1.31261545e-02   1.28700349e-02   1.26100765e-02   1.24117332e-02   1.21924465e-02   1.20516841e-02   1.18727114e-02   1.17599099e-02   1.16276131e-02   1.16114813e-02   1.15370454e-02   1.14300376e-02   1.13467326e-02   1.12655698e-02   1.11961552e-02   1.11907802e-02   
1.71453472e-01   1.93701835e-01   2.03515513e-01   1.87330141e-01   1.69323652e-01   1.68685153e-01   1.68068600e-01   1.58113430e-01   1.52664978e-01   1.57209361e-01   1.81489945e-01   2.12548179e-01   2.63140103e-01   3.44112749e-01   3.96064591e-01   4.89303562e-01   6.13469894e-01   7.92245831e-01   1.01803739e+00   1.33305857e+00   1.74590604e+00   2.29622584e+00   2.98630776e+00   3.96950470e+00   5.31772794e+00   7.17747490e+00   9.77994021e+00   1.34562559e+01   1.89791005e+01   2.81593108e+01   3.26440269e+01   3.05410858e+01   2.49954988e+01   2.32628975e+01   2.31614422e+01   2.27902793e+01   2.30832981e+01   2.25260661e+01   2.24245715e+01   2.25167561e+01   2.11978564e+01   2.19966028e+01   2.20796723e+01   2.02679672e+01   2.05936746e+01   2.07751081e+01   2.15734215e+01   1.88183985e+01   1.84731789e+01   1.53661919e+01   1.11055498e+01   7.86272626e+00   5.25561392e+00   3.46250606e+00   2.21331237e+00   1.47452972e+00   9.66565511e-01   6.31119117e-01   4.03960824e-01   2.61564309e-01   1.68925766e-01   1.12081252e-01   7.53834257e-02   5.28041167e-02   3.78180959e-02   3.09646494e-02   2.81551491e-02   2.61468211e-02   2.46544427e-02   2.33824147e-02   2.22162634e-02   2.11922169e-02   2.07915715e-02   2.08853986e-02   2.10721638e-02   2.14913110e-02   2.22791987e-02   2.29135689e-02   2.79303854e-02   2.92636071e-02   3.13117416e-02   3.87797144e-02   4.43812350e-02   5.09157925e-02   6.05126160e-02   7.51663639e-02   7.97870511e-02   7.02875821e-02   6.10433499e-02   4.98415114e-02   4.01524925e-02   3.05215049e-02   2.66736552e-02   2.48781892e-02   2.36131847e-02   2.23450732e-02   2.15155664e-02   2.07873473e-02   2.00984106e-02   1.94676587e-02   1.89278863e-02   1.83540680e-02   1.76153701e-02   1.66206757e-02   1.55329510e-02   1.45652882e-02   1.38378966e-02   1.32543562e-02   1.27839280e-02   1.24112687e-02   1.20783858e-02   1.18321398e-02   1.15706738e-02   1.14054374e-02   1.12054136e-02   1.10575502e-02   1.09085354e-02   1.07832723e-02   1.06895135e-02   1.05673778e-02   1.04938464e-02   1.04126533e-02   1.03601316e-02   1.02850324e-02   1.02264173e-02   1.01732698e-02   1.01278012e-02   1.01235879e-02   
1.86777802e-01   2.11432768e-01   2.19667237e-01   2.02280452e-01   1.83277679e-01   1.82610018e-01   1.81968242e-01   1.71492981e-01   1.67075549e-01   1.71595595e-01   2.03814761e-01   2.41351988e-01   4.03128153e-01   4.79005392e-01   6.05692686e-01   7.77220830e-01   9.90333958e-01   1.28590025e+00   1.66865650e+00   2.17544124e+00   2.85309927e+00   3.76746043e+00   5.01309173e+00   6.73142572e+00   9.12092544e+00   1.23054642e+01   1.67790965e+01   2.44623337e+01   3.76625767e+01   4.70386711e+01   7.11523537e+01   8.23404538e+01   8.06115841e+01   7.51960397e+01   
2.01515264e-01   2.27566254e-01   2.35260039e-01   2.15765735e-01   1.96126483e-01   1.95454190e-01   1.84113502e-01   1.81012402e-01   1.84974551e-01   1.95870098e-01   2.21240678e-01   2.62929692e-01   4.53501669e-01   5.53756146e-01   7.00175860e-01   8.96313857e-01   1.14352956e+00   1.48749921e+00   1.97086758e+00   2.58094031e+00   3.45930813e+00   4.60147922e+00   6.08134197e+00   8.11687030e+00   1.09449442e+01   1.49125488e+01   2.08317127e+01   3.06610540e+01   3.84197625e+01   4.80693174e+01   6.76259103e+01   9.26896640e+01   9.72988306e+01   9.34878912e+01   8.64315084e+01   6.68970809e+01   7.55154494e+01   8.03935606e+01   8.04872515e+01   
2.15706788e-01   2.43671337e-01   2.50293070e-01   2.29749801e-01   2.09071130e-01   2.08396703e-01   1.93737358e-01   1.98150952e-01   2.10461855e-01   2.38733913e-01   2.89938453e-01   3.59121032e-01   3.97523336e-01   5.27534027e-01   6.38257367e-01   8.06653029e-01   1.03372579e+00   1.34668713e+00   1.75665347e+00   2.30384505e+00   3.04255949e+00   4.04877155e+00   5.35133517e+00   7.14147217e+00   9.48906336e+00   1.27521995e+01   1.75657209e+01   2.51419179e+01   3.95799129e+01   4.82262837e+01   6.55899813e+01   9.94666987e+01   1.09668343e+02   1.05940185e+02   9.54282303e+01   9.23814974e+01   9.41692694e+01   9.42927202e+01   
2.29547626e-01   2.57355081e-01   2.65197568e-01   2.43395754e-01   2.22215609e-01   2.21516133e-01   2.20863049e-01   2.06035938e-01   2.13419386e-01   2.48632998e-01   3.02276489e-01   4.29556236e-01   4.82175499e-01   6.12940140e-01   7.28964214e-01   9.41461553e-01   1.20899609e+00   1.58224125e+00   2.07784701e+00   2.74504330e+00   3.59623029e+00   4.75474676e+00   6.34595512e+00   8.43257168e+00   1.13319208e+01   1.53966274e+01   2.11512865e+01   3.10494737e+01   4.16525360e+01   5.05684832e+01   6.78755230e+01   1.06400974e+02   1.19766447e+02   1.18790525e+02   1.07922383e+02   1.08900733e+02   1.09004085e+02   1.04027961e+02   1.07438636e+02   1.09986067e+02   1.06211891e+02   1.08407492e+02   1.10719107e+02   1.06522234e+02   1.08730273e+02   1.08773888e+02   
2.42827633e-01   2.71695647e-01   2.79693698e-01   2.56619782e-01   2.34503592e-01   2.33797733e-01   2.33135024e-01   2.17716912e-01   2.25275024e-01   2.74329164e-01   3.44424287e-01   5.03062190e-01   5.71449013e-01   7.10939942e-01   9.03003370e-01   1.16067189e+00   1.49286975e+00   1.96101432e+00   2.58773938e+00   3.38934731e+00   4.47604731e+00   5.97079749e+00   7.93037591e+00   1.06521198e+01   1.42636240e+01   1.93172738e+01   2.75726663e+01   4.37673404e+01   5.29222557e+01   6.87155101e+01   8.97232589e+01   1.14200410e+02   1.27958244e+02   1.28930941e+02   1.23841333e+02   1.16139186e+02   1.17073683e+02   1.17129197e+02   
2.55664076e-01   2.86189837e-01   2.93330231e-01   2.68924184e-01   2.46333744e-01   2.45606641e-01   2.44922300e-01   2.28869966e-01   2.35109362e-01   2.56878350e-01   3.12561343e-01   4.35649594e-01   5.43469706e-01   6.48953560e-01   8.15288644e-01   1.03834959e+00   1.34227324e+00   1.73906311e+00   2.26455284e+00   2.96937602e+00   3.92736417e+00   5.16547977e+00   6.86605295e+00   9.09328223e+00   1.21858987e+01   1.65183546e+01   2.25306173e+01   3.27368099e+01   4.56287581e+01   5.48699454e+01   7.14987786e+01   9.16947527e+01   1.18880450e+02   1.33236214e+02   1.37951652e+02   1.29834616e+02   1.21302094e+02   1.22852692e+02   1.22888844e+02   
2.68210494e-01   2.98839396e-01   3.06499281e-01   2.80916650e-01   2.57486774e-01   2.56721205e-01   2.56000856e-01   2.39925052e-01   2.48346230e-01   3.12727031e-01   4.16830028e-01   6.09447829e-01   7.15712746e-01   8.90199414e-01   1.12420882e+00   1.44452160e+00   1.86238542e+00   2.41582217e+00   3.15644841e+00   4.16416558e+00   5.46570162e+00   7.25211985e+00   9.59066688e+00   1.28356993e+01   1.72768922e+01   2.37017053e+01   3.44694547e+01   4.81667149e+01   5.87424285e+01   7.50568802e+01   9.53841593e+01   1.02053457e+02   1.02053458e+02   
2.80397316e-01   3.12531345e-01   3.19336908e-01   2.92352451e-01   2.68394595e-01   2.67624577e-01   2.66899396e-01   2.50111604e-01   2.59489042e-01   3.23945187e-01   4.33817778e-01   6.23270207e-01   7.93788744e-01   9.94984777e-01   1.26669057e+00   1.64219357e+00   2.13731672e+00   2.79884783e+00   3.69641256e+00   4.85650319e+00   6.44849689e+00   8.53165423e+00   1.14211479e+01   1.53533382e+01   2.05399142e+01   2.83889592e+01   4.12213875e+01   5.09091452e+01   6.30078458e+01   8.11254924e+01   8.11254886e+01   
2.92329294e-01   3.23682526e-01   3.32544962e-01   3.04424390e-01   2.80271659e-01   2.78596017e-01   2.77825635e-01   2.60064871e-01   2.69694102e-01   3.43472618e-01   4.73975738e-01   6.72397468e-01   8.66368216e-01   1.09668771e+00   1.40908141e+00   1.81422977e+00   2.34933758e+00   3.06449411e+00   4.03520418e+00   5.28845223e+00   7.00718613e+00   9.25522378e+00   1.23789087e+01   1.65458733e+01   2.21153670e+01   3.11858346e+01   4.49811734e+01   5.34261874e+01   6.71977562e+01   7.16049443e+01   7.16049369e+01   
3.03999139e-01   3.36214744e-01   3.44256384e-01   3.15531508e-01   2.90654734e-01   2.88923098e-01   2.88130000e-01   2.69579425e-01   2.81728863e-01   3.55008778e-01   5.01852263e-01   7.13690031e-01   9.30952402e-01   1.16964745e+00   1.49515084e+00   1.91703951e+00   2.47524102e+00   3.22108474e+00   4.23260811e+00   5.53794183e+00   7.32773428e+00   9.71368935e+00   1.29761358e+01   1.73272408e+01   2.36022954e+01   2.66290700e+01   2.66290718e+01   
3.15239901e-01   3.48662391e-01   3.56302419e-01   3.26633927e-01   3.00748374e-01   2.98978246e-01   2.98163203e-01   2.78725651e-01   2.89725185e-01   3.73832991e-01   5.57539890e-01   7.77450172e-01   1.00410561e+00   1.25293037e+00   1.59330518e+00   2.06850622e+00   2.66152379e+00   3.45414224e+00   4.52851712e+00   5.96393715e+00   7.86121175e+00   8.47856675e+00   8.47857024e+00   
3.18761307e-01   3.24001257e-01   3.37252722e-01   3.79003353e-01   3.75204413e-01   3.43665238e-01   3.18117193e-01   3.17244951e-01   2.96567142e-01   3.07632802e-01   4.07684997e-01   6.40156032e-01   8.68706304e-01   1.12853044e+00   1.41956448e+00   1.82092836e+00   2.34800069e+00   3.05350470e+00   3.96101530e+00   5.20038090e+00   6.62362736e+00   6.62362744e+00   
3.18133016e-01   3.29254370e-01   3.55023966e-01   3.58759879e-01   4.01632504e-01   3.96685410e-01   3.63061806e-01   3.37187293e-01   3.36250658e-01   3.12179585e-01   3.25236684e-01   4.46277107e-01   7.11003071e-01   9.54005505e-01   1.22680877e+00   1.55809920e+00   1.99826372e+00   2.56814651e+00   3.33145474e+00   4.36236063e+00   4.42619149e+00   4.52027865e+00   
3.23974401e-01   3.39662920e-01   3.70129362e-01   3.77897163e-01   4.26568028e-01   4.11692449e-01   3.76117137e-01   3.54742861e-01   3.53741717e-01   3.27135019e-01   3.43566654e-01   4.68689350e-01   7.19174507e-01   9.61927790e-01   1.25471403e+00   1.58943814e+00   2.01972637e+00   2.58676636e+00   2.99557924e+00   3.02904588e+00   
3.34641760e-01   3.57445036e-01   3.85362083e-01   3.95451784e-01   3.98758824e-01   4.44527133e-01   4.35978843e-01   3.97716729e-01   3.71585885e-01   3.70524714e-01   3.41087506e-01   3.58561653e-01   5.09047185e-01   7.66910013e-01   1.03596291e+00   1.35214823e+00   1.70374160e+00   2.16444427e+00   2.47011854e+00   1.14809029e+01   
3.48746847e-01   3.98567560e-01   4.12051489e-01   4.17045912e-01   4.65649970e-01   4.52392513e-01   4.13054196e-01   3.87504134e-01   3.86392628e-01   3.53779608e-01   3.72620819e-01   5.37889953e-01   7.80241407e-01   1.05033465e+00   1.35732618e+00   1.73256658e+00   2.18242269e+00   6.93477087e+00   
3.66463190e-01   4.08703784e-01   4.25961658e-01   4.34316783e-01   4.87176290e-01   4.62841041e-01   4.21666935e-01   4.02893579e-01   4.01724388e-01   3.66324833e-01   3.88542224e-01   5.65650713e-01   8.16967803e-01   1.09382128e+00   1.41667614e+00   1.80984682e+00   2.03760467e+00   5.05103111e+00   
3.72644006e-01   4.24757268e-01   4.42924382e-01   4.51768251e-01   5.05804426e-01   4.76096425e-01   4.33095318e-01   4.17388169e-01   4.16175114e-01   3.77990277e-01   3.98223993e-01   5.97876012e-01   8.44349503e-01   1.13161672e+00   1.47313678e+00   1.89217160e+00   1.92125789e+00   4.07886323e+00   
3.92168578e-01   4.37498611e-01   4.57010630e-01   4.67858248e-01   4.77850731e-01   5.23608908e-01   4.89025403e-01   4.44541583e-01   4.31925231e-01   4.30645001e-01   3.88072365e-01   4.12886720e-01   6.27012924e-01   8.81008011e-01   1.16903111e+00   1.51137988e+00   1.82963184e+00   3.50063996e+00   
4.15458342e-01   4.54316691e-01   4.74626032e-01   4.85007545e-01   5.39426452e-01   5.00142055e-01   4.54847641e-01   4.45464685e-01   4.44141238e-01   3.97197450e-01   4.21457638e-01   6.60023315e-01   9.20694877e-01   1.21611273e+00   1.57814469e+00   1.75151529e+00   3.07660951e+00   
4.21286262e-01   4.68305765e-01   4.89773971e-01   5.00976975e-01   5.55853326e-01   5.15055474e-01   4.68390539e-01   4.58629890e-01   4.57252126e-01   4.06241076e-01   4.31450800e-01   6.80378266e-01   9.44268319e-01   1.25095976e+00   1.61132853e+00   1.68799449e+00   2.87966738e+00   
4.45865470e-01   4.86941479e-01   5.09026393e-01   5.17945872e-01   5.71752171e-01   5.29429182e-01   4.81559804e-01   4.71375076e-01   4.69939181e-01   4.15564491e-01   4.51524061e-01   6.99512879e-01   9.49452266e-01   1.24940904e+00   1.61442731e+00   1.63287371e+00   2.64474388e+00   
4.52430896e-01   4.98817138e-01   5.22286053e-01   5.32794083e-01   5.87116060e-01   5.43462005e-01   4.94040071e-01   4.83580232e-01   4.82094798e-01   4.34307909e-01   4.27740946e-01   4.83128282e-01   7.32747532e-01   9.87331988e-01   1.29774640e+00   1.55893374e+00   2.54049334e+00   
4.77921546e-01   5.19519950e-01   5.40358021e-01   5.48874590e-01   6.02002621e-01   5.56887273e-01   5.06471085e-01   4.95646710e-01   4.94117574e-01   4.40986177e-01   4.34121138e-01   4.85797961e-01   7.24573796e-01   9.77338491e-01   1.27900666e+00   1.52050362e+00   2.28920483e+00   
4.84454235e-01   5.30801552e-01   5.52997757e-01   5.62854167e-01   6.16469813e-01   5.70043801e-01   5.17969784e-01   5.06837924e-01   5.05262719e-01   4.48730344e-01   4.42582748e-01   5.12397021e-01   7.46050790e-01   1.00186858e+00   1.29833951e+00   1.46697579e+00   2.15212745e+00   
5.10821673e-01   5.51210968e-01   5.72130800e-01   5.78141783e-01   6.30967394e-01   5.83099451e-01   5.29815227e-01   5.18327894e-01   5.16706523e-01   4.59350574e-01   4.46769598e-01   4.96915758e-01   7.28376854e-01   9.80464189e-01   1.27223558e+00   1.42998310e+00   2.00790960e+00   
5.16860958e-01   5.61787981e-01   5.84487335e-01   5.92054453e-01   6.44654646e-01   5.94929679e-01   5.40495374e-01   5.28837422e-01   5.27177421e-01   4.68147039e-01   4.51806979e-01   5.02047412e-01   7.35524466e-01   9.87866147e-01   1.29093220e+00   1.37674990e+00   1.86608251e+00   
5.44443898e-01   5.82128495e-01   6.00749954e-01   6.06042106e-01   6.57690372e-01   6.07444716e-01   5.53077594e-01   5.38962683e-01   5.37269134e-01   4.76064866e-01   4.55562092e-01   5.19030646e-01   7.56193705e-01   1.01092446e+00   1.31493328e+00   1.32195047e+00   1.70801541e+00   
5.49609557e-01   5.95498515e-01   6.14452296e-01   6.19456197e-01   6.71164158e-01   6.20338744e-01   5.63786781e-01   5.49199375e-01   5.47468401e-01   4.82174730e-01   4.61466105e-01   5.20259680e-01   7.43093667e-01   9.95072221e-01   1.29028238e+00   1.29687951e+00   1.71961353e+00   
5.79172677e-01   6.15725673e-01   6.30793556e-01   6.84587748e-01   6.31088990e-01   5.74256403e-01   5.59351888e-01   5.57575722e-01   4.90936187e-01   4.67112674e-01   5.27417636e-01   7.51717806e-01   1.00413675e+00   1.26368895e+00   1.62308545e+00   
5.83049088e-01   6.24973709e-01   6.42704837e-01   6.71325341e-01   6.92503645e-01   6.34438769e-01   5.76690507e-01   5.68605591e-01   5.66806061e-01   4.95400961e-01   4.71637585e-01   5.34256294e-01   7.58857357e-01   1.00865938e+00   1.22352913e+00   1.50643822e+00   
5.89158946e-01   6.35203400e-01   6.54578842e-01   6.59628785e-01   7.09059808e-01   6.53819458e-01   5.93728831e-01   5.78322011e-01   5.76480169e-01   5.01032077e-01   4.75935365e-01   5.36990614e-01   7.60810627e-01   1.00731415e+00   1.19179977e+00   1.46818498e+00   
6.17707733e-01   6.53766570e-01   6.69567505e-01   7.20632004e-01   6.63181812e-01   6.02246642e-01   5.86701027e-01   5.84838125e-01   5.07377699e-01   4.77348180e-01   5.36397320e-01   7.44227235e-01   9.93476276e-01   1.13975424e+00   1.36837961e+00   
6.22322460e-01   6.66718152e-01   6.82066794e-01   7.33211683e-01   6.74645365e-01   6.12287469e-01   5.96407525e-01   5.94500127e-01   5.13838298e-01   4.82776363e-01   5.32716840e-01   7.43183479e-01   9.83248401e-01   1.12988440e+00   1.33212130e+00   
6.28641076e-01   6.76953073e-01   6.93770170e-01   7.44547256e-01   6.85383141e-01   6.20831228e-01   6.04728569e-01   6.02796730e-01   5.19132847e-01   4.85594510e-01   5.39174227e-01   7.46494031e-01   9.89016594e-01   1.09019365e+00   1.19879848e+00   
6.57062149e-01   6.94178455e-01   7.07220178e-01   7.55820830e-01   6.95418955e-01   6.32705494e-01   6.13662510e-01   6.11680941e-01   5.23143098e-01   4.89929668e-01   5.44345610e-01   7.37041862e-01   9.73225376e-01   1.06524157e+00   1.20603024e+00   
6.61759463e-01   7.03435255e-01   7.18757750e-01   7.66885300e-01   7.07213626e-01   6.44059901e-01   6.21769243e-01   6.19761112e-01   5.27179171e-01   4.91527150e-01   5.40947794e-01   7.36366912e-01   9.64637956e-01   1.02732397e+00   1.10778477e+00   
6.67936174e-01   7.13264673e-01   7.30109828e-01   7.77693383e-01   7.16547077e-01   6.49475178e-01   6.29723862e-01   6.27694264e-01   5.29546282e-01   4.94704351e-01   5.46299749e-01   7.37210004e-01   9.60772477e-01   1.00288492e+00   1.06933395e+00   
6.97028956e-01   7.33474440e-01   7.43009265e-01   7.88191535e-01   7.24766672e-01   6.57893110e-01   6.37943097e-01   6.35877759e-01   5.35056291e-01   4.97166649e-01   5.41711379e-01   7.16438724e-01   9.33942850e-01   9.76216660e-01   1.09810187e+00   
7.01373966e-01   7.42618477e-01   7.54299992e-01   7.98666013e-01   7.33672037e-01   6.65873441e-01   6.45685752e-01   6.43593372e-01   5.40389758e-01   5.00230092e-01   5.48462671e-01   7.22351125e-01   9.32632963e-01   9.47361620e-01   9.97271202e-01   
7.07125822e-01   7.52172803e-01   7.65245319e-01   8.09449618e-01   7.42796770e-01   6.74256397e-01   6.53737258e-01   6.51601640e-01   5.45874479e-01   5.02153217e-01   5.43118511e-01   7.15375952e-01   9.19347448e-01   9.21724030e-01   9.77830380e-01   
7.37821982e-01   7.71310352e-01   7.76199659e-01   8.20419435e-01   7.54221878e-01   6.84924286e-01   6.61129004e-01   6.58963812e-01   5.48857441e-01   5.05306654e-01   5.44780847e-01   7.02663418e-01   9.00066408e-01   1.06515167e+00   
7.41431902e-01   7.80242924e-01   7.87391250e-01   8.30381615e-01   7.62982761e-01   6.92599800e-01   6.68449604e-01   6.66265775e-01   5.52112655e-01   5.07231599e-01   5.52301950e-01   7.13250949e-01   8.70534242e-01   9.97848267e-01   
7.46470346e-01   7.89507675e-01   7.98243464e-01   8.40120403e-01   7.70339798e-01   7.00226208e-01   6.75678192e-01   6.73456257e-01   5.54335244e-01   5.08480905e-01   5.50823364e-01   7.09975613e-01   8.44701116e-01   9.02329219e-01   
7.52534321e-01   7.99015507e-01   8.09090816e-01   8.49795208e-01   7.79702318e-01   7.07449922e-01   6.82701301e-01   6.80459985e-01   5.57384423e-01   5.10015869e-01   5.47540920e-01   6.95199075e-01   8.20477292e-01   9.54713041e-01   
7.82564009e-01   8.16418834e-01   8.21116863e-01   8.59988814e-01   7.89661763e-01   7.14823344e-01   6.89836925e-01   6.87576482e-01   5.58261124e-01   5.12182145e-01   5.60418212e-01   7.17213563e-01   7.97154410e-01   1.00260094e+00   
7.94665532e-01   8.39270132e-01   8.45147190e-01   8.84056022e-01   8.09524250e-01   7.32632243e-01   7.07023394e-01   7.04697620e-01   5.64817663e-01   5.15534045e-01   5.60298475e-01   7.03715889e-01   7.38147017e-01   7.72788205e-01   
8.32090130e-01   8.68906892e-01   9.07239352e-01   8.28563121e-01   7.49417871e-01   7.23128247e-01   7.20745516e-01   5.69155302e-01   5.18258000e-01   5.58148566e-01   6.81926036e-01   7.06792149e-01   
8.45889253e-01   8.88614116e-01   8.95437704e-01   9.29424800e-01   8.48949503e-01   7.69805873e-01   7.39291085e-01   7.36851750e-01   5.73749966e-01   5.20947205e-01   5.64204237e-01   6.31007224e-01   5.83481591e-01   
8.82695972e-01   9.19494620e-01   9.50831147e-01   8.68434119e-01   7.85189220e-01   7.54215096e-01   7.51730158e-01   5.65584345e-01   5.23774794e-01   5.69432925e-01   5.87422958e-01   5.38589108e-01   
9.23989742e-01   9.46392235e-01   9.70574976e-01   8.83566324e-01   8.00283677e-01   7.68695512e-01   7.66158357e-01   5.62567219e-01   5.26241510e-01   5.57008588e-01   5.37391688e-01   
9.33599602e-01   9.66828835e-01   9.92562259e-01   9.02543407e-01   8.15242668e-01   7.82976542e-01   7.80404354e-01   5.62451069e-01   5.28649845e-01   5.37382226e-01   6.12402397e-01   
9.95497842e-01   1.01510694e+00   1.03210922e+00   9.37387997e-01   8.45940027e-01   8.08932048e-01   8.06281803e-01   5.57294547e-01   5.24271597e-01   5.19444047e-01   5.59551907e-01   
1.04725651e+00   1.05960609e+00   1.06971961e+00   9.65610819e-01   8.72065821e-01   8.33562497e-01   8.30804817e-01   5.68623486e-01   5.17162937e-01   5.31551744e-01   
1.10024399e+00   1.10060441e+00   1.10732189e+00   9.99367755e-01   8.99299971e-01   8.55536354e-01   8.52719500e-01   5.81100154e-01   5.24451331e-01   5.22503600e-01   4.95835425e-01   
1.12429961e+00   1.14400081e+00   1.14220769e+00   1.02483814e+00   9.20906209e-01   8.76036583e-01   8.73161972e-01   5.88893802e-01   5.33490760e-01   5.29102980e-01   4.75649135e-01   
1.17548218e+00   1.18369158e+00   1.17788543e+00   1.05412730e+00   9.45035316e-01   8.94622875e-01   8.91687954e-01   5.99753912e-01   5.42959955e-01   5.35233861e-01   4.56673359e-01   
1.22862427e+00   1.22152538e+00   1.21272002e+00   1.08158709e+00   9.65925408e-01   9.09066149e-01   9.06072107e-01   6.21220623e-01   5.51456627e-01   5.38793779e-01   4.40103791e-01   
1.25310211e+00   1.26207730e+00   1.24412319e+00   1.10501939e+00   9.77195946e-01   9.32984063e-01   9.29878438e-01   6.37009686e-01   5.67306193e-01   5.48280943e-01   4.38096456e-01   
1.30486495e+00   1.29843374e+00   1.27685219e+00   1.13112755e+00   1.03665869e+00   9.58106611e-01   9.54917462e-01   6.51918488e-01   5.82309777e-01   5.61492069e-01   4.45797237e-01   
1.38202849e+00   1.37238583e+00   1.34129332e+00   1.17325440e+00   1.05712800e+00   1.01090611e+00   1.00762518e+00   6.93393820e-01   6.18105438e-01   5.89278124e-01   4.37180423e-01   
1.45945109e+00   1.44469648e+00   1.40094484e+00   1.24550650e+00   1.12413085e+00   1.06493269e+00   1.06141781e+00   7.37355530e-01   6.55813711e-01   6.16665521e-01   4.33115358e-01   
1.53732053e+00   1.51605408e+00   1.45857395e+00   1.32220632e+00   1.18557708e+00   1.11844054e+00   1.11485475e+00   7.95010568e-01   7.00066073e-01   6.50648295e-01   4.36901043e-01   
1.61601784e+00   1.57202532e+00   1.41596002e+00   1.27010606e+00   1.17261343e+00   1.16890095e+00   8.40719413e-01   7.41550013e-01   6.85644769e-01   5.10228715e-01   
1.69657862e+00   1.65202100e+00   1.54650557e+00   1.39033934e+00   1.25731652e+00   1.22575817e+00   1.22185150e+00   8.74825807e-01   7.78680746e-01   7.17345098e-01   5.00252609e-01   
1.74247632e+00   1.71775942e+00   1.61118671e+00   1.44876532e+00   1.31247254e+00   1.27996438e+00   1.27591169e+00   9.06689841e-01   8.16132124e-01   7.50307915e-01   4.90570598e-01   
1.82147775e+00   1.67490393e+00   1.50981260e+00   1.36601694e+00   1.33252176e+00   1.32847442e+00   9.46400062e-01   8.55414042e-01   7.83122619e-01   4.98785350e-01   
1.90427860e+00   1.84813978e+00   1.75822679e+00   1.59761806e+00   1.44278681e+00   1.38575624e+00   1.38162876e+00   9.83638321e-01   8.94568413e-01   8.25943348e-01   8.17030318e-01   5.05894938e-01   
1.95053554e+00   1.90941002e+00   1.81709554e+00   1.65154738e+00   1.49101230e+00   1.44803107e+00   1.44427980e+00   1.43801571e+00   1.03714473e+00   9.39192825e-01   8.66329020e-01   8.53484562e-01   5.12338477e-01   
2.03387556e+00   1.97793703e+00   1.89392325e+00   1.73244344e+00   1.56208632e+00   1.50840951e+00   1.50429542e+00   1.49842232e+00   1.08560231e+00   9.82818248e-01   9.05883993e-01   8.84770144e-01   5.18736964e-01   
2.19317754e+00   2.13191960e+00   2.04079714e+00   1.87369230e+00   1.69857332e+00   1.65801049e+00   1.65372082e+00   1.64589470e+00   1.21524561e+00   1.08813827e+00   1.00561716e+00   9.66115578e-01   5.60869146e-01   
2.41466886e+00   2.32911955e+00   2.29909403e+00   2.06702023e+00   1.88100490e+00   1.80358602e+00   1.79882066e+00   1.77205588e+00   1.36274211e+00   1.19459735e+00   1.10721934e+00   1.04541752e+00   5.96590060e-01   
2.62144103e+00   2.55480856e+00   2.58761093e+00   2.42839083e+00   2.20934296e+00   2.02932682e+00   1.95133833e+00   1.94568596e+00   1.71508390e+00   1.40016843e+00   1.28138761e+00   1.18694344e+00   1.12752352e+00   6.66978875e-01   
2.88007296e+00   2.77557929e+00   2.68903074e+00   2.41548171e+00   2.21793171e+00   2.10164373e+00   2.09539964e+00   2.08692952e+00   1.57816765e+00   1.40920129e+00   1.30887278e+00   1.21606820e+00   6.92009253e-01   
3.12164523e+00   2.95993713e+00   2.77176418e+00   2.53295955e+00   2.31293515e+00   2.24687896e+00   2.24077465e+00   2.22899398e+00   1.69959305e+00   1.52054520e+00   1.41684276e+00   1.31030768e+00   1.30421869e+00   7.60445822e-01   
3.32959308e+00   3.13228667e+00   2.97842099e+00   2.71850630e+00   2.47050333e+00   2.39194195e+00   2.38472584e+00   2.37475127e+00   1.83053557e+00   1.63777632e+00   1.52551030e+00   1.42284747e+00   1.38185396e+00   8.17208806e-01   
3.42641594e+00   3.27353667e+00   3.14056207e+00   2.88070527e+00   2.62022969e+00   2.53785766e+00   2.53013381e+00   2.51938603e+00   1.96187140e+00   1.76088251e+00   1.64212011e+00   1.54221876e+00   1.47032939e+00   9.14569210e-01   
3.60764985e+00   3.41753870e+00   3.28631062e+00   3.03452412e+00   2.76854517e+00   2.68235463e+00   2.67523378e+00   2.66420975e+00   2.08587057e+00   1.88029058e+00   1.76015704e+00   1.65108534e+00   1.56427789e+00   9.86119038e-01   
3.79109162e+00   3.55675081e+00   3.42457603e+00   3.18921944e+00   2.91551594e+00   2.82547759e+00   2.81685896e+00   2.80164806e+00   2.20348366e+00   2.00593546e+00   1.89129102e+00   1.77948807e+00   1.71791094e+00   1.68973896e+00   1.13881200e+00   
3.87508689e+00   3.67595464e+00   3.55721612e+00   3.33381003e+00   3.05772837e+00   2.96426710e+00   2.95516215e+00   2.93867735e+00   2.33903093e+00   2.13607837e+00   2.01528011e+00   1.90544334e+00   1.83800754e+00   1.75758237e+00   1.20408582e+00   
4.04694485e+00   3.80290789e+00   3.68677293e+00   3.47830181e+00   3.18575133e+00   3.10039901e+00   3.09261924e+00   3.07937235e+00   2.46655325e+00   2.27085581e+00   2.15356357e+00   2.05012247e+00   1.96470542e+00   1.93397508e+00   1.88642455e+00   1.92409464e+00   1.87878579e+00   1.91297656e+00   1.86839439e+00   1.85575730e+00   1.37825685e+00   
4.22889405e+00   3.93645602e+00   3.81135026e+00   3.61253749e+00   3.32495904e+00   3.23912592e+00   3.23105880e+00   3.20993944e+00   2.57827027e+00   2.40225224e+00   2.27887789e+00   2.19605974e+00   2.12584902e+00   2.07639157e+00   2.11468160e+00   2.06559549e+00   2.12005736e+00   2.06633573e+00   2.10702449e+00   2.04161102e+00   2.08379747e+00   2.03356537e+00   2.07189694e+00   2.02230172e+00   2.06106150e+00   2.00770563e+00   2.05049502e+00   1.99966540e+00   2.03849593e+00   1.98845748e+00   2.02794618e+00   1.97472439e+00   2.01764685e+00   2.00571132e+00   1.57191814e+00   
4.71619100e+00   4.37737485e+00   4.26395415e+00   4.19913107e+00   3.92657021e+00   3.82352159e+00   3.81542444e+00   3.78582166e+00   3.40754205e+00   3.07539870e+00   3.00965744e+00   2.88786782e+00   2.80478942e+00   2.73619781e+00   2.79077210e+00   2.69293185e+00   2.77126494e+00   2.69210491e+00   2.75310811e+00   2.68669952e+00   2.73735986e+00   2.65835103e+00   2.72281908e+00   2.64942452e+00   2.70703917e+00   2.62705835e+00   2.69274139e+00   2.62363862e+00   2.67794984e+00   2.59768836e+00   2.66425235e+00   2.58887977e+00   2.64880375e+00   2.56784377e+00   2.66524696e+00   2.57665706e+00   2.64759635e+00   2.56917020e+00   2.63079651e+00   2.54281578e+00   2.61652125e+00   2.53267807e+00   2.59999427e+00   2.51732039e+00   2.58557127e+00   2.49788330e+00   2.57169206e+00   2.48757545e+00   2.55519406e+00   2.47219047e+00   2.54105504e+00   2.45416777e+00   2.52776636e+00   2.44361355e+00   2.55291374e+00   2.45769503e+00   2.53539588e+00   2.52080813e+00   2.19109343e+00   
5.30816613e+00   4.95482994e+00   4.89114834e+00   4.91041146e+00   4.90505911e+00   4.68287801e+00   4.66847057e+00   3.94654240e+00   4.06934096e+00   4.09067016e+00   4.04035137e+00   4.02192747e+00   3.91653910e+00   4.00630624e+00   3.91265103e+00   3.99193967e+00   3.90261045e+00   3.97674234e+00   3.86291256e+00   3.96035362e+00   3.86952833e+00   3.94668840e+00   3.82626191e+00   3.96783729e+00   3.82920781e+00   3.94076770e+00   3.80472940e+00   3.92097053e+00   3.79737979e+00   3.90115303e+00   3.77921828e+00   3.88384166e+00   3.74212556e+00   3.86429365e+00   3.73454611e+00   3.84403522e+00   3.71592788e+00   3.82638424e+00   3.67980100e+00   3.80699863e+00   3.67158394e+00   3.84279892e+00   3.67750117e+00   3.81534355e+00   3.66211126e+00   3.78929654e+00   3.62402464e+00   3.76761600e+00   3.60138729e+00   3.74567442e+00   3.58017908e+00   3.72636955e+00   3.57010416e+00   3.70311395e+00   3.54888462e+00   3.68359530e+00   3.51681041e+00   3.66415730e+00   3.50529432e+00   3.64024975e+00   3.47812952e+00   3.70017576e+00   3.51382755e+00   3.67611572e+00   3.50656232e+00   3.65260691e+00   3.47127979e+00   3.63149110e+00   3.45081278e+00   3.61192065e+00   3.43769783e+00   3.58661287e+00   3.41463725e+00   3.56598382e+00   3.38667768e+00   3.54665940e+00   3.37296956e+00   3.52122115e+00   3.34979435e+00   3.60004533e+00   3.40158239e+00   3.57366772e+00   3.38721879e+00   3.54437037e+00   3.34983598e+00   3.52472162e+00   3.33447537e+00   3.49747294e+00   3.47720774e+00   3.94648518e+00   
6.38419571e+00   5.85883855e+00   5.71378147e+00   5.83332346e+00   6.36601392e+00   6.26921734e+00   6.24905003e+00   5.80261899e+00   5.46128989e+00   5.77346600e+00   6.56255454e+00   6.37697934e+00   6.53648804e+00   6.35190996e+00   6.52662859e+00   6.33588289e+00   6.51987159e+00   6.32118906e+00   6.51375722e+00   6.33913598e+00   6.51108038e+00   6.34377247e+00   6.50664747e+00   6.28075899e+00   6.49385721e+00   6.29471936e+00   6.48496775e+00   6.23578855e+00   6.46639254e+00   6.56454474e+00   6.27179473e+00   6.52851943e+00   6.23948178e+00   6.50699632e+00   6.24874692e+00   6.48799556e+00   6.24111553e+00   6.46670005e+00   6.19222035e+00   6.44462612e+00   6.11765984e+00   6.41555156e+00   6.08908554e+00   6.39293400e+00   6.09515961e+00   6.36748578e+00   6.07194841e+00   6.48492585e+00   6.08805122e+00   6.43415031e+00   6.10436561e+00   6.39721126e+00   5.99988031e+00   6.36439009e+00   5.99609689e+00   6.32683293e+00   5.96327249e+00   6.29778176e+00   5.88987388e+00   6.26648357e+00   5.88386770e+00   6.22747079e+00   5.84983523e+00   6.19799405e+00   5.78121652e+00   6.36632689e+00   5.88809002e+00   6.31312159e+00   5.89172637e+00   6.26535106e+00   5.79046095e+00   6.22509612e+00   5.75256462e+00   6.19161150e+00   5.73884455e+00   6.14523998e+00   5.69850410e+00   6.11097714e+00   5.63828088e+00   6.07900244e+00   5.62291555e+00   6.03108409e+00   5.56028604e+00   5.99812445e+00   5.52848670e+00   6.24201124e+00   5.69584028e+00   6.18770095e+00   5.64796299e+00   6.14569237e+00   5.63878553e+00   6.08846543e+00   5.55740710e+00   6.05594198e+00   5.53671537e+00   6.00206631e+00   5.47716755e+00   5.96705421e+00   5.44430250e+00   5.93496617e+00   5.42250101e+00   5.88300301e+00   5.37746036e+00   6.21577536e+00   5.60217319e+00   6.15623359e+00   5.55143630e+00   6.11587285e+00   5.52105024e+00   6.05350776e+00   5.46840615e+00   6.01070785e+00   5.42222478e+00   5.97455346e+00   5.40432585e+00   5.34153564e+00   5.88040130e+00   
7.13488146e+00   6.59888353e+00   6.48502391e+00   6.68409817e+00   7.65267133e+00   7.95581284e+00   7.93021892e+00   7.90161312e+00   7.44159013e+00   7.19557812e+00   7.34056415e+00   8.33562216e+00   9.32684561e+00   1.00292586e+01   9.54829442e+00   9.97933008e+00   9.57281109e+00   9.97897851e+00   9.59464424e+00   9.98701260e+00   9.47145942e+00   9.98608075e+00   9.53129837e+00   9.99532362e+00   9.56000100e+00   1.00012249e+01   9.41994318e+00   9.99327162e+00   9.47467957e+00   1.02604142e+01   9.53114192e+00   1.02038623e+01   9.57222223e+00   1.01874438e+01   9.42847558e+00   1.01528073e+01   9.53876533e+00   1.01388064e+01   9.34059475e+00   1.01013451e+01   9.44490573e+00   1.00792767e+01   9.24536838e+00   1.00399838e+01   9.20157717e+00   1.00123568e+01   9.23636587e+00   1.03916911e+01   9.36195561e+00   1.03011304e+01   9.42502969e+00   1.02393673e+01   9.21055468e+00   1.01940889e+01   9.22581184e+00   1.01303959e+01   9.17063061e+00   1.00886425e+01   9.03323518e+00   1.00449175e+01   9.04091568e+00   9.97357144e+00   8.90650534e+00   9.92795639e+00   8.85849948e+00   9.89078893e+00   1.05096561e+01   9.22405729e+00   1.04133293e+01   9.25299635e+00   1.03242528e+01   9.05283029e+00   1.02592436e+01   8.99150698e+00   1.02126240e+01   8.98257662e+00   1.01233376e+01   8.90745692e+00   1.00723247e+01   8.80316599e+00   1.00294162e+01   8.83884814e+00   9.95496135e+00   8.68282578e+00   9.90271978e+00   8.63173249e+00   1.07973573e+01   9.18633276e+00   1.07023388e+01   9.17227078e+00   1.05755222e+01   8.99804193e+00   1.05275256e+01   8.97161577e+00   1.04185965e+01   8.85335364e+00   1.03713399e+01   8.80389132e+00   1.03321245e+01   8.77795855e+00   1.02272495e+01   8.69309190e+00   1.01701432e+01   8.61688773e+00   1.15667430e+01   9.46969502e+00   1.14403353e+01   9.37397578e+00   1.13771307e+01   9.33162524e+00   1.12356054e+01   9.20884377e+00   1.11667291e+01   9.15105309e+00   1.11145040e+01   9.11312183e+00   1.09884577e+01   9.01846461e+00   1.09127946e+01   1.08581529e+01   1.44260358e+01   
7.89464124e+00   7.27658868e+00   7.15706402e+00   7.45326594e+00   8.67777486e+00   9.78202999e+00   9.74213932e+00   9.27428998e+00   9.09004227e+00   9.25264191e+00   1.03534952e+01   1.22018186e+01   1.34613472e+01   1.35931535e+01   1.44117991e+01   1.44026756e+01   1.53308710e+01   1.41942157e+01   1.52338814e+01   1.43988562e+01   1.52858184e+01   1.41203924e+01   1.52932017e+01   1.43955366e+01   1.53701128e+01   1.41083085e+01   1.53801185e+01   1.43914520e+01   1.54489538e+01   1.40816761e+01   1.54486979e+01   1.43601461e+01   1.61733363e+01   1.44422911e+01   1.60766038e+01   1.43534394e+01   1.60545611e+01   1.44704740e+01   1.60432079e+01   1.44510168e+01   1.60569156e+01   1.41836391e+01   1.60385080e+01   1.42955441e+01   1.60062218e+01   1.42593905e+01   1.60083059e+01   1.39968805e+01   1.59861637e+01   1.40905817e+01   1.47183041e+01   1.71544129e+01   1.45484618e+01   1.69925898e+01   1.44141313e+01   1.69381779e+01   1.44780022e+01   1.68371899e+01   1.43884667e+01   1.68012249e+01   1.41345276e+01   1.67764556e+01   1.43566960e+01   1.67224723e+01   1.39771977e+01   1.66786913e+01   1.39079128e+01   1.66690872e+01   1.39619909e+01   1.87046318e+01   1.49376852e+01   1.85317796e+01   1.50469689e+01   1.83173740e+01   1.46372482e+01   1.82792549e+01   1.46743661e+01   1.80948614e+01   1.45458637e+01   1.80408116e+01   1.43656355e+01   1.80183953e+01   1.45140932e+01   1.78782929e+01   1.41988920e+01   1.78254716e+01   1.41397494e+01   1.78040647e+01   1.41580330e+01   2.15828137e+01   1.59376404e+01   2.13479376e+01   1.58603240e+01   2.09605773e+01   1.56496516e+01   2.08407426e+01   1.54859356e+01   2.07879573e+01   1.55643249e+01   2.05373729e+01   1.52675133e+01   2.04409952e+01   1.51934817e+01   2.03955105e+01   1.51704660e+01   2.01002620e+01   1.49588987e+01   2.00116405e+01   2.78587372e+01   1.80461873e+01   2.73735743e+01   1.78325316e+01   2.72498615e+01   1.77765758e+01   2.66664464e+01   1.74826923e+01   2.64927363e+01   1.73739899e+01   2.63987874e+01   1.73287605e+01   2.59252109e+01   1.70884776e+01   2.57228126e+01   1.69741600e+01   2.56358312e+01   1.69133721e+01   1.66924313e+01   2.50313046e+01   
8.66635057e+00   7.93470265e+00   7.80861346e+00   8.19056693e+00   9.61582221e+00   1.14907104e+01   1.17488875e+01   1.17021842e+01   1.13777146e+01   1.11614362e+01   1.09086672e+01   1.10982539e+01   1.08390538e+01   1.11434022e+01   1.08804631e+01   1.11096926e+01   1.15588776e+01   1.27220820e+01   1.42518620e+01   1.63246713e+01   1.78557106e+01   1.93537406e+01   1.96507184e+01   2.14572558e+01   2.14471566e+01   2.37583379e+01   2.32153485e+01   2.46971835e+01   2.15977283e+01   2.45737676e+01   2.21630963e+01   2.47520874e+01   2.14728065e+01   2.47978843e+01   2.21381650e+01   2.50069528e+01   2.14410919e+01   2.50587334e+01   2.21174739e+01   2.74614229e+01   2.25730016e+01   2.73069667e+01   2.28276172e+01   2.73131399e+01   2.22486255e+01   2.73682582e+01   2.29637438e+01   2.74989598e+01   2.20935324e+01   2.75165948e+01   2.20292242e+01   2.76451381e+01   2.23705893e+01   2.76591358e+01   2.23438887e+01   2.77854340e+01   2.18436370e+01   2.36477063e+01   3.30088262e+01   2.39756578e+01   3.26780290e+01   2.45878280e+01   3.24880857e+01   2.35350733e+01   3.24168204e+01   2.34334184e+01   3.25030490e+01   2.36963693e+01   3.22120421e+01   2.31372369e+01   3.22552217e+01   2.30908440e+01   3.23934787e+01   2.33273685e+01   3.21061122e+01   2.28492725e+01   4.27472373e+01   2.66474705e+01   4.21308894e+01   2.63561110e+01   4.20393383e+01   2.68172192e+01   4.13582692e+01   2.58461435e+01   4.15004171e+01   2.60303823e+01   4.08424127e+01   2.54810308e+01   4.09023145e+01   2.54317082e+01   4.10958281e+01   2.58887975e+01   4.07028474e+01   2.51800962e+01   4.07122027e+01   2.51077120e+01   4.08308022e+01   7.00088421e+01   3.27485042e+01   6.87254589e+01   3.23399194e+01   6.85128142e+01   3.27625250e+01   6.65171842e+01   3.15490111e+01   6.62471877e+01   3.13795333e+01   6.67086049e+01   3.17940793e+01   6.51647849e+01   3.08304902e+01   6.48644199e+01   3.06836286e+01   6.50894159e+01   3.09654246e+01   6.36430262e+01   1.49219217e+02   4.95613247e+01   1.47104605e+02   4.82335462e+01   1.47192411e+02   4.80373372e+01   1.47306885e+02   4.83860180e+01   1.44867174e+02   4.65421498e+01   1.44946500e+02   4.67849048e+01   1.43355463e+02   4.54917374e+01   1.42859787e+02   4.50789769e+01   1.42997855e+02   4.52456647e+01   1.41356987e+02   4.41523906e+01   2.37183311e+02   1.30746678e+02   
